EESchema Schematic File Version 2
LIBS:ss_pic-rescue
LIBS:power
LIBS:device
LIBS:transistors
LIBS:conn
LIBS:linear
LIBS:regul
LIBS:74xx
LIBS:cmos4000
LIBS:adc-dac
LIBS:memory
LIBS:xilinx
LIBS:microcontrollers
LIBS:dsp
LIBS:microchip
LIBS:microchip_pic16mcu
LIBS:analog_switches
LIBS:motorola
LIBS:texas
LIBS:intel
LIBS:audio
LIBS:interface
LIBS:digital-audio
LIBS:philips
LIBS:display
LIBS:cypress
LIBS:siliconi
LIBS:opto
LIBS:atmel
LIBS:contrib
LIBS:valves
LIBS:driver
LIBS:ir
LIBS:ss_pic-cache
EELAYER 25 0
EELAYER END
$Descr A4 11693 8268
encoding utf-8
Sheet 3 4
Title ""
Date ""
Rev ""
Comp ""
Comment1 ""
Comment2 ""
Comment3 ""
Comment4 ""
$EndDescr
$Comp
L MCP6002 U1
U 1 1 58DEF11F
P 3600 2200
F 0 "U1" H 3600 2350 50  0000 L CNN
F 1 "MCP6002" H 3600 2050 50  0000 L CNN
F 2 "" H 3500 2250 50  0000 C CNN
F 3 "" H 3600 2350 50  0000 C CNN
	1    3600 2200
	1    0    0    -1  
$EndComp
$Comp
L R_Small R5
U 1 1 58DEF215
P 3200 1800
F 0 "R5" H 3230 1820 50  0000 L CNN
F 1 "130K*" H 3230 1760 50  0000 L CNN
F 2 "" H 3200 1800 50  0000 C CNN
F 3 "" H 3200 1800 50  0000 C CNN
	1    3200 1800
	1    0    0    -1  
$EndComp
$Comp
L R_Small R4
U 1 1 58DEF270
P 3000 2100
F 0 "R4" V 2900 2100 50  0000 C CNN
F 1 "15K" V 3100 2100 50  0000 C CNN
F 2 "" H 3000 2100 50  0000 C CNN
F 3 "" H 3000 2100 50  0000 C CNN
	1    3000 2100
	0    1    1    0   
$EndComp
$Comp
L R_Small R6
U 1 1 58DEF2D9
P 3200 2500
F 0 "R6" H 3230 2520 50  0000 L CNN
F 1 "15K" H 3230 2460 50  0000 L CNN
F 2 "" H 3200 2500 50  0000 C CNN
F 3 "" H 3200 2500 50  0000 C CNN
	1    3200 2500
	1    0    0    -1  
$EndComp
$Comp
L R_Small R9
U 1 1 58DEF330
P 4600 2550
F 0 "R9" H 4630 2570 50  0000 L CNN
F 1 "100" H 4630 2510 50  0000 L CNN
F 2 "" H 4600 2550 50  0000 C CNN
F 3 "" H 4600 2550 50  0000 C CNN
	1    4600 2550
	1    0    0    -1  
$EndComp
$Comp
L R_Small R7
U 1 1 58DEF393
P 4100 2200
F 0 "R7" V 4000 2200 50  0000 C CNN
F 1 "15K" V 4200 2200 50  0000 C CNN
F 2 "" H 4100 2200 50  0000 C CNN
F 3 "" H 4100 2200 50  0000 C CNN
	1    4100 2200
	0    1    1    0   
$EndComp
$Comp
L C_Small C3
U 1 1 58DEF3F6
P 2800 2350
F 0 "C3" H 2810 2420 50  0000 L CNN
F 1 "0.1" H 2810 2270 50  0000 L CNN
F 2 "" H 2800 2350 50  0000 C CNN
F 3 "" H 2800 2350 50  0000 C CNN
	1    2800 2350
	1    0    0    -1  
$EndComp
$Comp
L CP_Small C4
U 1 1 58DEF4B2
P 5300 2250
F 0 "C4" H 5310 2320 50  0000 L CNN
F 1 "220uF" H 5310 2170 50  0000 L CNN
F 2 "" H 5300 2250 50  0000 C CNN
F 3 "" H 5300 2250 50  0000 C CNN
	1    5300 2250
	1    0    0    -1  
$EndComp
$Comp
L Q_PMOS_GDS Q2
U 1 1 58DEF51B
P 5200 1850
F 0 "Q2" H 5500 1650 50  0000 R CNN
F 1 "IRF5035" H 5400 1750 50  0000 L CNN
F 2 "" H 5400 1950 50  0000 C CNN
F 3 "" H 5200 1850 50  0000 C CNN
	1    5200 1850
	1    0    0    1   
$EndComp
$Comp
L 2N7002 Q1
U 1 1 58DEF59C
P 4500 2150
F 0 "Q1" H 4700 2225 50  0000 L CNN
F 1 "2N7002" H 4700 2150 50  0000 L CNN
F 2 "TO_SOT_Packages_SMD:SOT-23" H 4700 2075 50  0001 L CIN
F 3 "" H 4500 2150 50  0000 L CNN
	1    4500 2150
	1    0    0    -1  
$EndComp
$Comp
L GND #PWR10
U 1 1 58DEFA30
P 4600 2750
F 0 "#PWR10" H 4600 2500 50  0001 C CNN
F 1 "GND" H 4600 2600 50  0000 C CNN
F 2 "" H 4600 2750 50  0000 C CNN
F 3 "" H 4600 2750 50  0000 C CNN
	1    4600 2750
	1    0    0    -1  
$EndComp
$Comp
L R_Small R1
U 1 1 58DEFF5B
P 2600 2100
F 0 "R1" V 2500 2100 50  0000 C CNN
F 1 "15K" V 2700 2100 50  0000 C CNN
F 2 "" H 2600 2100 50  0000 C CNN
F 3 "" H 2600 2100 50  0000 C CNN
	1    2600 2100
	0    1    1    0   
$EndComp
$Comp
L GND #PWR7
U 1 1 58DF000A
P 3200 2800
F 0 "#PWR7" H 3200 2550 50  0001 C CNN
F 1 "GND" H 3200 2650 50  0000 C CNN
F 2 "" H 3200 2800 50  0000 C CNN
F 3 "" H 3200 2800 50  0000 C CNN
	1    3200 2800
	1    0    0    -1  
$EndComp
$Comp
L GND #PWR9
U 1 1 58DF0066
P 3500 2600
F 0 "#PWR9" H 3500 2350 50  0001 C CNN
F 1 "GND" H 3500 2450 50  0000 C CNN
F 2 "" H 3500 2600 50  0000 C CNN
F 3 "" H 3500 2600 50  0000 C CNN
	1    3500 2600
	1    0    0    -1  
$EndComp
$Comp
L +5V #PWR8
U 1 1 58DF00E1
P 3500 1800
F 0 "#PWR8" H 3500 1650 50  0001 C CNN
F 1 "+5V" H 3500 1940 50  0000 C CNN
F 2 "" H 3500 1800 50  0000 C CNN
F 3 "" H 3500 1800 50  0000 C CNN
	1    3500 1800
	1    0    0    -1  
$EndComp
$Comp
L +5V #PWR1
U 1 1 58DF02E8
P 2325 2650
F 0 "#PWR1" H 2325 2500 50  0001 C CNN
F 1 "+5V" H 2325 2790 50  0000 C CNN
F 2 "" H 2325 2650 50  0000 C CNN
F 3 "" H 2325 2650 50  0000 C CNN
	1    2325 2650
	1    0    0    -1  
$EndComp
$Comp
L GND #PWR2
U 1 1 58DF0314
P 2325 3050
F 0 "#PWR2" H 2325 2800 50  0001 C CNN
F 1 "GND" H 2325 2900 50  0000 C CNN
F 2 "" H 2325 3050 50  0000 C CNN
F 3 "" H 2325 3050 50  0000 C CNN
	1    2325 3050
	1    0    0    -1  
$EndComp
$Comp
L C_Small C1
U 1 1 58DF0340
P 2325 2850
F 0 "C1" H 2335 2920 50  0000 L CNN
F 1 "0.1" H 2335 2770 50  0000 L CNN
F 2 "" H 2325 2850 50  0000 C CNN
F 3 "" H 2325 2850 50  0000 C CNN
	1    2325 2850
	1    0    0    -1  
$EndComp
$Comp
L R_Small R10
U 1 1 58DF0AF2
P 4800 1850
F 0 "R10" V 4700 1850 50  0000 C CNN
F 1 "2K2" V 4900 1850 50  0000 C CNN
F 2 "" H 4800 1850 50  0000 C CNN
F 3 "" H 4800 1850 50  0000 C CNN
	1    4800 1850
	0    1    1    0   
$EndComp
$Comp
L R_Small R11
U 1 1 58DF0BED
P 4950 1650
F 0 "R11" H 4980 1670 50  0000 L CNN
F 1 "130K*" H 4980 1610 50  0000 L CNN
F 2 "" H 4950 1650 50  0000 C CNN
F 3 "" H 4950 1650 50  0000 C CNN
	1    4950 1650
	1    0    0    -1  
$EndComp
$Comp
L +24V #PWR14
U 1 1 58DF0C61
P 5300 1450
F 0 "#PWR14" H 5300 1300 50  0001 C CNN
F 1 "+24V" H 5300 1590 50  0000 C CNN
F 2 "" H 5300 1450 50  0000 C CNN
F 3 "" H 5300 1450 50  0000 C CNN
	1    5300 1450
	1    0    0    -1  
$EndComp
$Comp
L GND #PWR15
U 1 1 58DF11E7
P 5300 2450
F 0 "#PWR15" H 5300 2200 50  0001 C CNN
F 1 "GND" H 5300 2300 50  0000 C CNN
F 2 "" H 5300 2450 50  0000 C CNN
F 3 "" H 5300 2450 50  0000 C CNN
	1    5300 2450
	1    0    0    -1  
$EndComp
$Comp
L CONN_01X02 P1
U 1 1 58DF127B
P 5950 2475
F 0 "P1" H 5950 2625 50  0000 C CNN
F 1 "Vout" V 6050 2475 50  0000 C CNN
F 2 "" H 5950 2475 50  0000 C CNN
F 3 "" H 5950 2475 50  0000 C CNN
	1    5950 2475
	1    0    0    -1  
$EndComp
$Comp
L GND #PWR17
U 1 1 58DF135F
P 5600 4150
F 0 "#PWR17" H 5600 3900 50  0001 C CNN
F 1 "GND" H 5600 4000 50  0000 C CNN
F 2 "" H 5600 4150 50  0000 C CNN
F 3 "" H 5600 4150 50  0000 C CNN
	1    5600 4150
	1    0    0    -1  
$EndComp
$Comp
L VDDA #PWR6
U 1 1 58DF1839
P 3200 1600
F 0 "#PWR6" H 3200 1450 50  0001 C CNN
F 1 "VDDA" H 3200 1750 50  0000 C CNN
F 2 "" H 3200 1600 50  0000 C CNN
F 3 "" H 3200 1600 50  0000 C CNN
	1    3200 1600
	1    0    0    -1  
$EndComp
$Comp
L VDDA #PWR16
U 1 1 58DF1878
P 5600 2050
F 0 "#PWR16" H 5600 1900 50  0001 C CNN
F 1 "VDDA" H 5600 2200 50  0000 C CNN
F 2 "" H 5600 2050 50  0000 C CNN
F 3 "" H 5600 2050 50  0000 C CNN
	1    5600 2050
	1    0    0    -1  
$EndComp
Text HLabel 2300 2100 0    60   Input ~ 0
PWM
$Comp
L R_Small R15
U 1 1 58E11759
P 5600 3825
F 0 "R15" H 5630 3845 50  0000 L CNN
F 1 "0.01" H 5630 3785 50  0000 L CNN
F 2 "" H 5600 3825 50  0000 C CNN
F 3 "" H 5600 3825 50  0000 C CNN
	1    5600 3825
	1    0    0    -1  
$EndComp
$Comp
L MCP6002 U1
U 2 1 58E122E9
P 4750 3650
F 0 "U1" H 4750 3800 50  0000 L CNN
F 1 "MCP6002" H 4750 3500 50  0000 L CNN
F 2 "" H 4650 3700 50  0000 C CNN
F 3 "" H 4750 3800 50  0000 C CNN
	2    4750 3650
	-1   0    0    -1  
$EndComp
Text HLabel 4050 3650 0    60   Output ~ 0
I
Text HLabel 2300 3650 0    60   Output ~ 0
V
$Comp
L R_Small R2
U 1 1 58E13A34
P 2750 3450
F 0 "R2" H 2780 3470 50  0000 L CNN
F 1 "220K" H 2780 3410 50  0000 L CNN
F 2 "" H 2750 3450 50  0000 C CNN
F 3 "" H 2750 3450 50  0000 C CNN
	1    2750 3450
	1    0    0    -1  
$EndComp
$Comp
L R_Small R3
U 1 1 58E13C66
P 2750 3850
F 0 "R3" H 2780 3870 50  0000 L CNN
F 1 "22K*" H 2780 3810 50  0000 L CNN
F 2 "" H 2750 3850 50  0000 C CNN
F 3 "" H 2750 3850 50  0000 C CNN
	1    2750 3850
	1    0    0    -1  
$EndComp
$Comp
L GND #PWR5
U 1 1 58E14106
P 2750 4050
F 0 "#PWR5" H 2750 3800 50  0001 C CNN
F 1 "GND" H 2750 3900 50  0000 C CNN
F 2 "" H 2750 4050 50  0000 C CNN
F 3 "" H 2750 4050 50  0000 C CNN
	1    2750 4050
	1    0    0    -1  
$EndComp
$Comp
L VDDA #PWR4
U 1 1 58E14334
P 2750 3250
F 0 "#PWR4" H 2750 3100 50  0001 C CNN
F 1 "VDDA" H 2750 3400 50  0000 C CNN
F 2 "" H 2750 3250 50  0000 C CNN
F 3 "" H 2750 3250 50  0000 C CNN
	1    2750 3250
	1    0    0    -1  
$EndComp
$Comp
L C_Small C2
U 1 1 58E146A9
P 2500 3850
F 0 "C2" H 2510 3920 50  0000 L CNN
F 1 "0.1" H 2510 3770 50  0000 L CNN
F 2 "" H 2500 3850 50  0000 C CNN
F 3 "" H 2500 3850 50  0000 C CNN
	1    2500 3850
	1    0    0    -1  
$EndComp
$Comp
L GND #PWR3
U 1 1 58E147DF
P 2500 4050
F 0 "#PWR3" H 2500 3800 50  0001 C CNN
F 1 "GND" H 2500 3900 50  0000 C CNN
F 2 "" H 2500 4050 50  0000 C CNN
F 3 "" H 2500 4050 50  0000 C CNN
	1    2500 4050
	1    0    0    -1  
$EndComp
$Comp
L R_Small R13
U 1 1 58E14CDD
P 5150 3950
F 0 "R13" H 5180 3970 50  0000 L CNN
F 1 "1K" H 5180 3910 50  0000 L CNN
F 2 "" H 5150 3950 50  0000 C CNN
F 3 "" H 5150 3950 50  0000 C CNN
	1    5150 3950
	1    0    0    -1  
$EndComp
$Comp
L GND #PWR12
U 1 1 58E14DDD
P 4850 4150
F 0 "#PWR12" H 4850 3900 50  0001 C CNN
F 1 "GND" H 4850 4000 50  0000 C CNN
F 2 "" H 4850 4150 50  0000 C CNN
F 3 "" H 4850 4150 50  0000 C CNN
	1    4850 4150
	1    0    0    -1  
$EndComp
$Comp
L +5V #PWR11
U 1 1 58E14E71
P 4850 3250
F 0 "#PWR11" H 4850 3100 50  0001 C CNN
F 1 "+5V" H 4850 3390 50  0000 C CNN
F 2 "" H 4850 3250 50  0000 C CNN
F 3 "" H 4850 3250 50  0000 C CNN
	1    4850 3250
	1    0    0    -1  
$EndComp
$Comp
L R_Small R14
U 1 1 58E14FAF
P 5350 3550
F 0 "R14" V 5250 3550 50  0000 C CNN
F 1 "1K" V 5450 3550 50  0000 C CNN
F 2 "" H 5350 3550 50  0000 C CNN
F 3 "" H 5350 3550 50  0000 C CNN
	1    5350 3550
	0    1    1    0   
$EndComp
$Comp
L GND #PWR13
U 1 1 58E15234
P 5150 4150
F 0 "#PWR13" H 5150 3900 50  0001 C CNN
F 1 "GND" H 5150 4000 50  0000 C CNN
F 2 "" H 5150 4150 50  0000 C CNN
F 3 "" H 5150 4150 50  0000 C CNN
	1    5150 4150
	1    0    0    -1  
$EndComp
Wire Wire Line
	4600 2350 4600 2450
Wire Wire Line
	4200 2200 4300 2200
Wire Wire Line
	3900 2200 4000 2200
Wire Wire Line
	4600 2750 4600 2650
Wire Wire Line
	3200 1900 3200 2400
Wire Wire Line
	3200 2300 3300 2300
Connection ~ 3200 2300
Wire Wire Line
	2700 2100 2900 2100
Wire Wire Line
	3100 2100 3300 2100
Wire Wire Line
	2800 2100 2800 2250
Connection ~ 2800 2100
Wire Wire Line
	3200 2600 3200 2800
Wire Wire Line
	2800 2450 2800 2700
Wire Wire Line
	2800 2700 3200 2700
Connection ~ 3200 2700
Wire Wire Line
	3500 2600 3500 2500
Wire Wire Line
	3500 1800 3500 1900
Wire Wire Line
	2325 2650 2325 2750
Wire Wire Line
	2325 2950 2325 3050
Wire Wire Line
	3200 1600 3200 1700
Wire Wire Line
	4900 1850 5000 1850
Wire Wire Line
	4950 1750 4950 1850
Connection ~ 4950 1850
Wire Wire Line
	5300 1450 5300 1650
Wire Wire Line
	4950 1550 4950 1500
Wire Wire Line
	4950 1500 5300 1500
Connection ~ 5300 1500
Wire Wire Line
	4700 1850 4600 1850
Wire Wire Line
	4600 1850 4600 1950
Wire Wire Line
	5300 2050 5300 2150
Wire Wire Line
	5300 2350 5300 2450
Connection ~ 5300 2100
Wire Wire Line
	2300 2100 2500 2100
Wire Wire Line
	5600 4150 5600 3925
Wire Wire Line
	5750 2525 5600 2525
Wire Wire Line
	5600 2525 5600 3725
Wire Wire Line
	5600 2425 5750 2425
Wire Wire Line
	5600 2050 5600 2425
Wire Wire Line
	5300 2100 5600 2100
Connection ~ 5600 2100
Wire Wire Line
	4050 3650 4450 3650
Wire Wire Line
	2750 3550 2750 3750
Wire Wire Line
	2300 3650 2750 3650
Connection ~ 2750 3650
Wire Wire Line
	2750 3950 2750 4050
Wire Wire Line
	2750 3250 2750 3350
Wire Wire Line
	2500 3750 2500 3650
Connection ~ 2500 3650
Wire Wire Line
	2500 4050 2500 3950
Wire Wire Line
	5050 3750 5150 3750
Wire Wire Line
	5150 3300 5150 3850
Wire Wire Line
	4850 3950 4850 4150
Wire Wire Line
	4850 3250 4850 3350
Wire Wire Line
	5050 3550 5250 3550
Wire Wire Line
	5150 4150 5150 4050
$Comp
L R_Small R12
U 1 1 58E15363
P 5000 3300
F 0 "R12" V 4900 3300 50  0000 C CNN
F 1 "47K" V 5100 3300 50  0000 C CNN
F 2 "" H 5000 3300 50  0000 C CNN
F 3 "" H 5000 3300 50  0000 C CNN
	1    5000 3300
	0    1    1    0   
$EndComp
Wire Wire Line
	5100 3300 5150 3300
Connection ~ 5150 3750
$Comp
L RVAR R8
U 1 1 58E155EB
P 4500 3300
F 0 "R8" V 4580 3250 50  0000 C CNN
F 1 "47K" V 4420 3360 50  0000 C CNN
F 2 "" H 4500 3300 50  0000 C CNN
F 3 "" H 4500 3300 50  0000 C CNN
	1    4500 3300
	0    1    -1   0   
$EndComp
Wire Wire Line
	4900 3300 4750 3300
Wire Wire Line
	4250 3300 4200 3300
Wire Wire Line
	4200 3300 4200 3650
Connection ~ 4200 3650
Wire Wire Line
	5450 3550 5600 3550
Connection ~ 5600 3550
$EndSCHEMATC
