EESchema Schematic File Version 2
LIBS:ss-rescue
LIBS:power
LIBS:device
LIBS:transistors
LIBS:conn
LIBS:linear
LIBS:regul
LIBS:74xx
LIBS:cmos4000
LIBS:adc-dac
LIBS:memory
LIBS:xilinx
LIBS:microcontrollers
LIBS:dsp
LIBS:microchip
LIBS:microchip_pic16mcu
LIBS:analog_switches
LIBS:motorola
LIBS:texas
LIBS:intel
LIBS:audio
LIBS:interface
LIBS:digital-audio
LIBS:philips
LIBS:display
LIBS:cypress
LIBS:siliconi
LIBS:opto
LIBS:atmel
LIBS:contrib
LIBS:valves
LIBS:driver
LIBS:stm8
LIBS:ss-cache
EELAYER 25 0
EELAYER END
$Descr A4 11693 8268
encoding utf-8
Sheet 2 6
Title ""
Date ""
Rev ""
Comp ""
Comment1 ""
Comment2 ""
Comment3 ""
Comment4 ""
$EndDescr
$Comp
L 74HC595 U?
U 1 1 5853AA2C
P 6075 3800
F 0 "U?" H 6225 4400 50  0000 C CNN
F 1 "74HC595" H 6075 3200 50  0000 C CNN
F 2 "" H 6075 3800 50  0000 C CNN
F 3 "" H 6075 3800 50  0000 C CNN
	1    6075 3800
	1    0    0    -1  
$EndComp
$Comp
L 74HC595 U?
U 1 1 5853AA52
P 6075 5175
F 0 "U?" H 6225 5775 50  0000 C CNN
F 1 "74HC595" H 6075 4575 50  0000 C CNN
F 2 "" H 6075 5175 50  0000 C CNN
F 3 "" H 6075 5175 50  0000 C CNN
	1    6075 5175
	1    0    0    -1  
$EndComp
$Comp
L AG12864E DS?
U 1 1 5853AA83
P 7425 1950
F 0 "DS?" H 6275 2600 50  0000 C CNN
F 1 "AG12864E" H 8475 2600 50  0000 C CNN
F 2 "AG12864E" H 7425 1750 50  0000 C CIN
F 3 "" H 7425 1950 50  0000 C CNN
	1    7425 1950
	1    0    0    -1  
$EndComp
$Comp
L GND #PWR061
U 1 1 5853AE5D
P 8525 2750
F 0 "#PWR061" H 8525 2500 50  0001 C CNN
F 1 "GND" H 8525 2600 50  0000 C CNN
F 2 "" H 8525 2750 50  0000 C CNN
F 3 "" H 8525 2750 50  0000 C CNN
	1    8525 2750
	1    0    0    -1  
$EndComp
$Comp
L CONN_01X08 P?
U 1 1 5853B19C
P 4600 3000
F 0 "P?" H 4600 3450 50  0000 C CNN
F 1 "CONN_01X08" V 4700 3000 50  0000 C CNN
F 2 "" H 4600 3000 50  0000 C CNN
F 3 "" H 4600 3000 50  0000 C CNN
	1    4600 3000
	-1   0    0    -1  
$EndComp
Text Label 4900 2750 0    60   ~ 0
Led
Text Label 4900 2950 0    60   ~ 0
Rst
Text Label 4900 3050 0    60   ~ 0
CS
Text Label 4900 3150 0    60   ~ 0
SDA
Wire Wire Line
	6775 3350 6775 3350
Wire Wire Line
	6775 3350 6775 2550
Wire Wire Line
	6775 3450 6875 3450
Wire Wire Line
	6875 3450 6875 2550
Wire Wire Line
	6775 3550 6975 3550
Wire Wire Line
	6975 3550 6975 2550
Wire Wire Line
	6775 3650 7075 3650
Wire Wire Line
	7075 3650 7075 2550
Wire Wire Line
	6775 3750 7175 3750
Wire Wire Line
	7175 3750 7175 2550
Wire Wire Line
	6775 3850 7275 3850
Wire Wire Line
	7275 3850 7275 2550
Wire Wire Line
	6775 3950 7375 3950
Wire Wire Line
	7375 3950 7375 2550
Wire Wire Line
	6775 4050 7475 4050
Wire Wire Line
	7475 4050 7475 2550
Wire Wire Line
	6775 4250 6775 4500
Wire Wire Line
	6775 4500 5375 4500
Wire Wire Line
	5375 4500 5375 4725
Wire Wire Line
	6775 4725 8025 4725
Wire Wire Line
	8025 4725 8025 2550
Wire Wire Line
	6775 4825 7625 4825
Wire Wire Line
	7625 4825 7625 2550
Wire Wire Line
	6775 4925 7725 4925
Wire Wire Line
	7725 4925 7725 2550
Wire Wire Line
	8525 2550 8525 2750
Wire Wire Line
	7925 2550 7925 2650
Wire Wire Line
	6475 2650 8525 2650
Connection ~ 8525 2650
Wire Wire Line
	6475 2650 6475 2550
Connection ~ 7925 2650
Wire Wire Line
	6325 2650 6325 2550
Wire Wire Line
	4800 2750 8425 2750
Wire Wire Line
	8425 2750 8425 2550
Wire Wire Line
	8125 2550 8125 3050
Wire Wire Line
	4800 2950 7825 2950
Wire Wire Line
	7825 2950 7825 2550
Wire Wire Line
	8125 3050 4800 3050
Wire Wire Line
	4800 3150 5375 3150
Wire Wire Line
	5375 3150 5375 3350
Wire Wire Line
	4800 3250 5300 3250
Wire Wire Line
	5300 3250 5300 5225
Wire Wire Line
	5300 3550 5375 3550
Wire Wire Line
	5300 3850 5375 3850
Connection ~ 5300 3550
Wire Wire Line
	5300 4925 5375 4925
Connection ~ 5300 3850
Wire Wire Line
	5300 5225 5375 5225
Connection ~ 5300 4925
Text Label 4900 3250 0    60   ~ 0
SCLK
$Comp
L GND #PWR062
U 1 1 5853BA4E
P 4900 3450
F 0 "#PWR062" H 4900 3200 50  0001 C CNN
F 1 "GND" H 4900 3300 50  0000 C CNN
F 2 "" H 4900 3450 50  0000 C CNN
F 3 "" H 4900 3450 50  0000 C CNN
	1    4900 3450
	1    0    0    -1  
$EndComp
Wire Wire Line
	4800 3350 4900 3350
Wire Wire Line
	4900 3350 4900 3450
$Comp
L +5V #PWR063
U 1 1 5853BABA
P 4900 2550
F 0 "#PWR063" H 4900 2400 50  0001 C CNN
F 1 "+5V" H 4900 2690 50  0000 C CNN
F 2 "" H 4900 2550 50  0000 C CNN
F 3 "" H 4900 2550 50  0000 C CNN
	1    4900 2550
	1    0    0    -1  
$EndComp
Wire Wire Line
	4800 2650 4900 2650
Wire Wire Line
	4900 2650 4900 2550
$Comp
L +5V #PWR064
U 1 1 5853BB28
P 6100 2550
F 0 "#PWR064" H 6100 2400 50  0001 C CNN
F 1 "+5V" H 6100 2690 50  0000 C CNN
F 2 "" H 6100 2550 50  0000 C CNN
F 3 "" H 6100 2550 50  0000 C CNN
	1    6100 2550
	1    0    0    -1  
$EndComp
Wire Wire Line
	6100 2550 6100 2650
Wire Wire Line
	6100 2650 6325 2650
$Comp
L +5V #PWR065
U 1 1 5853BC10
P 5200 3550
F 0 "#PWR065" H 5200 3400 50  0001 C CNN
F 1 "+5V" H 5200 3690 50  0000 C CNN
F 2 "" H 5200 3550 50  0000 C CNN
F 3 "" H 5200 3550 50  0000 C CNN
	1    5200 3550
	1    0    0    -1  
$EndComp
Wire Wire Line
	5200 3550 5200 5025
Wire Wire Line
	5200 3650 5375 3650
Wire Wire Line
	5200 5025 5375 5025
Connection ~ 5200 3650
$Comp
L GND #PWR066
U 1 1 5853BD04
P 5375 4050
F 0 "#PWR066" H 5375 3800 50  0001 C CNN
F 1 "GND" H 5375 3900 50  0000 C CNN
F 2 "" H 5375 4050 50  0000 C CNN
F 3 "" H 5375 4050 50  0000 C CNN
	1    5375 4050
	1    0    0    -1  
$EndComp
Wire Wire Line
	5375 3950 5375 4050
$Comp
L GND #PWR067
U 1 1 5853BD71
P 5375 5425
F 0 "#PWR067" H 5375 5175 50  0001 C CNN
F 1 "GND" H 5375 5275 50  0000 C CNN
F 2 "" H 5375 5425 50  0000 C CNN
F 3 "" H 5375 5425 50  0000 C CNN
	1    5375 5425
	1    0    0    -1  
$EndComp
Wire Wire Line
	5375 5325 5375 5425
$EndSCHEMATC
