EESchema Schematic File Version 2
LIBS:ss-rescue
LIBS:power
LIBS:device
LIBS:transistors
LIBS:conn
LIBS:linear
LIBS:regul
LIBS:74xx
LIBS:cmos4000
LIBS:adc-dac
LIBS:memory
LIBS:xilinx
LIBS:microcontrollers
LIBS:dsp
LIBS:microchip
LIBS:microchip_pic16mcu
LIBS:analog_switches
LIBS:motorola
LIBS:texas
LIBS:intel
LIBS:audio
LIBS:interface
LIBS:digital-audio
LIBS:philips
LIBS:display
LIBS:cypress
LIBS:siliconi
LIBS:opto
LIBS:atmel
LIBS:contrib
LIBS:valves
LIBS:driver
LIBS:stm8
LIBS:ss-cache
EELAYER 25 0
EELAYER END
$Descr A3 16535 11693
encoding utf-8
Sheet 1 6
Title "PIC16F8xx(a) Soldering Station"
Date ""
Rev "2.0"
Comp ""
Comment1 ""
Comment2 "gav@bmstu.ru"
Comment3 ""
Comment4 ""
$EndDescr
$Comp
L SW_PUSH SW1
U 1 1 56B0ABCF
P 11450 2450
F 0 "SW1" H 11600 2560 50  0000 C CNN
F 1 "Iron+" H 11450 2370 50  0001 C CNN
F 2 "" H 11450 2450 50  0000 C CNN
F 3 "" H 11450 2450 50  0000 C CNN
	1    11450 2450
	1    0    0    -1  
$EndComp
$Comp
L SW_PUSH SW5
U 1 1 56B0ABD0
P 11450 3250
F 0 "SW5" H 11600 3360 50  0000 C CNN
F 1 "HotAir-" H 11450 3170 50  0001 C CNN
F 2 "" H 11450 3250 50  0000 C CNN
F 3 "" H 11450 3250 50  0000 C CNN
	1    11450 3250
	1    0    0    -1  
$EndComp
$Comp
L SW_PUSH SW2
U 1 1 56B0ABD1
P 11450 2650
F 0 "SW2" H 11600 2760 50  0000 C CNN
F 1 "Iron-" H 11450 2570 50  0001 C CNN
F 2 "" H 11450 2650 50  0000 C CNN
F 3 "" H 11450 2650 50  0000 C CNN
	1    11450 2650
	1    0    0    -1  
$EndComp
$Comp
L SW_PUSH SW3
U 1 1 56B0ABD2
P 11450 2850
F 0 "SW3" H 11600 2960 50  0000 C CNN
F 1 "IronOn" H 11450 2770 50  0001 C CNN
F 2 "" H 11450 2850 50  0000 C CNN
F 3 "" H 11450 2850 50  0000 C CNN
	1    11450 2850
	1    0    0    -1  
$EndComp
$Comp
L SW_PUSH SW4
U 1 1 56B0ABD3
P 11450 3050
F 0 "SW4" H 11600 3160 50  0000 C CNN
F 1 "HotAir+" H 11450 2970 50  0001 C CNN
F 2 "" H 11450 3050 50  0000 C CNN
F 3 "" H 11450 3050 50  0000 C CNN
	1    11450 3050
	1    0    0    -1  
$EndComp
$Comp
L SW_PUSH SW6
U 1 1 56B0ABD4
P 11450 3450
F 0 "SW6" H 11600 3560 50  0000 C CNN
F 1 "Fan-" H 11450 3370 50  0001 C CNN
F 2 "" H 11450 3450 50  0000 C CNN
F 3 "" H 11450 3450 50  0000 C CNN
	1    11450 3450
	1    0    0    -1  
$EndComp
$Comp
L SW_PUSH SW7
U 1 1 56B0ABD5
P 11450 3650
F 0 "SW7" H 11600 3760 50  0000 C CNN
F 1 "Fan+" H 11450 3570 50  0001 C CNN
F 2 "" H 11450 3650 50  0000 C CNN
F 3 "" H 11450 3650 50  0000 C CNN
	1    11450 3650
	1    0    0    -1  
$EndComp
$Comp
L SW_PUSH SW8
U 1 1 56B0ABD6
P 11450 4400
F 0 "SW8" H 11600 4510 50  0000 C CNN
F 1 "HotAirOn" H 11450 4320 50  0001 C CNN
F 2 "" H 11450 4400 50  0000 C CNN
F 3 "" H 11450 4400 50  0000 C CNN
	1    11450 4400
	1    0    0    -1  
$EndComp
$Comp
L GND #PWR28
U 1 1 56B0ABD7
P 11950 4500
F 0 "#PWR28" H 11950 4250 50  0001 C CNN
F 1 "GND" H 11950 4350 50  0000 C CNN
F 2 "" H 11950 4500 50  0000 C CNN
F 3 "" H 11950 4500 50  0000 C CNN
	1    11950 4500
	-1   0    0    -1  
$EndComp
Entry Wire Line
	10550 2350 10650 2450
Entry Wire Line
	10550 2550 10650 2650
Entry Wire Line
	10550 2750 10650 2850
Entry Wire Line
	10550 4300 10650 4400
$Comp
L Encoder_switch E1
U 1 1 56B0ABD8
P 11575 1500
F 0 "E1" H 11585 1750 40  0000 C CNN
F 1 "Encoder_switch" H 11575 1800 40  0000 C CNN
F 2 "" H 11575 1500 60  0000 C CNN
F 3 "" H 11575 1500 60  0000 C CNN
	1    11575 1500
	-1   0    0    -1  
$EndComp
Text Label 10750 2450 0    60   ~ 0
Iron+
Text Label 10750 2650 0    60   ~ 0
Iron-
Text Label 10750 2850 0    60   ~ 0
IronOn
Text Label 10750 4400 0    60   ~ 0
HotAirOn
Text Label 10750 3650 0    60   ~ 0
Fan+
Text Label 10750 3450 0    60   ~ 0
Fan-
Text Label 10750 3250 0    60   ~ 0
HotAir-
Text Label 10750 3050 0    60   ~ 0
HotAir+
Entry Wire Line
	10550 1350 10650 1450
Entry Wire Line
	10550 1450 10650 1550
Entry Wire Line
	10550 1200 10650 1300
$Comp
L GND #PWR6
U 1 1 56B0ABD9
P 11575 1750
F 0 "#PWR6" H 11575 1500 50  0001 C CNN
F 1 "GND" H 11575 1600 50  0000 C CNN
F 2 "" H 11575 1750 50  0000 C CNN
F 3 "" H 11575 1750 50  0000 C CNN
	1    11575 1750
	1    0    0    -1  
$EndComp
Text Label 10750 1450 0    60   ~ 0
EncA
Text Label 10750 1550 0    60   ~ 0
EncB
Text Label 10750 1300 0    60   ~ 0
EncSw
$Comp
L LM358 U1
U 1 1 56B0ABDE
P 3125 2050
F 0 "U1" H 3075 2250 50  0000 L CNN
F 1 "MCP6002" H 3075 1800 50  0000 L CNN
F 2 "" H 3125 2050 50  0000 C CNN
F 3 "" H 3125 2050 50  0000 C CNN
	1    3125 2050
	1    0    0    -1  
$EndComp
$Comp
L R R10
U 1 1 56B0ABDF
P 3775 2050
F 0 "R10" V 3855 2050 50  0000 C CNN
F 1 "1M" V 3775 2050 50  0000 C CNN
F 2 "" V 3705 2050 50  0000 C CNN
F 3 "" H 3775 2050 50  0000 C CNN
	1    3775 2050
	0    1    1    0   
$EndComp
$Comp
L R R12
U 1 1 56B0ABE0
P 2675 2450
F 0 "R12" V 2755 2450 50  0000 C CNN
F 1 "1K" V 2675 2450 50  0000 C CNN
F 2 "" V 2605 2450 50  0000 C CNN
F 3 "" H 2675 2450 50  0000 C CNN
	1    2675 2450
	1    0    0    -1  
$EndComp
$Comp
L R R6
U 1 1 56B0ABE1
P 2175 1950
F 0 "R6" V 2255 1950 50  0000 C CNN
F 1 "10K" V 2175 1950 50  0000 C CNN
F 2 "" V 2105 1950 50  0000 C CNN
F 3 "" H 2175 1950 50  0000 C CNN
	1    2175 1950
	0    1    1    0   
$EndComp
$Comp
L POT-RESCUE-ss_pic RV2
U 1 1 56B0ABE2
P 3025 1450
F 0 "RV2" H 3025 1350 50  0000 C CNN
F 1 "50K" H 3025 1450 50  0000 C CNN
F 2 "" H 3025 1450 50  0000 C CNN
F 3 "" H 3025 1450 50  0000 C CNN
	1    3025 1450
	1    0    0    -1  
$EndComp
$Comp
L GND #PWR14
U 1 1 56B0ABE3
P 2675 2800
F 0 "#PWR14" H 2675 2550 50  0001 C CNN
F 1 "GND" H 2675 2650 50  0000 C CNN
F 2 "" H 2675 2800 50  0000 C CNN
F 3 "" H 2675 2800 50  0000 C CNN
	1    2675 2800
	1    0    0    -1  
$EndComp
$Comp
L C C2
U 1 1 56B0ABE4
P 2475 2450
F 0 "C2" H 2500 2550 50  0000 L CNN
F 1 "0.01" H 2475 2350 50  0000 L CNN
F 2 "" H 2513 2300 50  0000 C CNN
F 3 "" H 2475 2450 50  0000 C CNN
	1    2475 2450
	1    0    0    -1  
$EndComp
Text GLabel 1875 1950 0    60   Input ~ 0
Termocouple
$Comp
L R R1
U 1 1 56B0ABE5
P 1950 1700
F 0 "R1" V 2030 1700 50  0000 C CNN
F 1 "1K" V 1950 1700 50  0000 C CNN
F 2 "" V 1880 1700 50  0000 C CNN
F 3 "" H 1950 1700 50  0000 C CNN
	1    1950 1700
	1    0    0    -1  
$EndComp
$Comp
L POT-RESCUE-ss_pic RV1
U 1 1 56B0ABE6
P 1550 1400
F 0 "RV1" H 1550 1300 50  0000 C CNN
F 1 "10K" H 1550 1400 50  0000 C CNN
F 2 "" H 1550 1400 50  0000 C CNN
F 3 "" H 1550 1400 50  0000 C CNN
	1    1550 1400
	1    0    0    -1  
$EndComp
$Comp
L +5V #PWR3
U 1 1 56B0ABE7
P 1200 1300
F 0 "#PWR3" H 1200 1150 50  0001 C CNN
F 1 "+5V" H 1200 1440 50  0000 C CNN
F 2 "" H 1200 1300 50  0000 C CNN
F 3 "" H 1200 1300 50  0000 C CNN
	1    1200 1300
	1    0    0    -1  
$EndComp
$Comp
L +5V #PWR5
U 1 1 56B0ABE8
P 3025 1750
F 0 "#PWR5" H 3025 1600 50  0001 C CNN
F 1 "+5V" H 3025 1890 50  0000 C CNN
F 2 "" H 3025 1750 50  0000 C CNN
F 3 "" H 3025 1750 50  0000 C CNN
	1    3025 1750
	1    0    0    -1  
$EndComp
$Comp
L GND #PWR12
U 1 1 56B0ABE9
P 3025 2350
F 0 "#PWR12" H 3025 2100 50  0001 C CNN
F 1 "GND" H 3025 2200 50  0000 C CNN
F 2 "" H 3025 2350 50  0000 C CNN
F 3 "" H 3025 2350 50  0000 C CNN
	1    3025 2350
	1    0    0    -1  
$EndComp
$Comp
L C C1
U 1 1 56B0ABEA
P 4025 2300
F 0 "C1" H 4050 2400 50  0000 L CNN
F 1 "0.01" H 4050 2200 50  0000 L CNN
F 2 "" H 4063 2150 50  0000 C CNN
F 3 "" H 4025 2300 50  0000 C CNN
	1    4025 2300
	1    0    0    -1  
$EndComp
$Comp
L GND #PWR13
U 1 1 56B0ABEB
P 4025 2550
F 0 "#PWR13" H 4025 2300 50  0001 C CNN
F 1 "GND" H 4025 2400 50  0000 C CNN
F 2 "" H 4025 2550 50  0000 C CNN
F 3 "" H 4025 2550 50  0000 C CNN
	1    4025 2550
	1    0    0    -1  
$EndComp
$Comp
L LM358 U5
U 1 1 56B0ABEC
P 3100 7450
F 0 "U5" H 3050 7650 50  0000 L CNN
F 1 "MCP6002" H 3050 7200 50  0000 L CNN
F 2 "" H 3100 7450 50  0000 C CNN
F 3 "" H 3100 7450 50  0000 C CNN
	1    3100 7450
	1    0    0    -1  
$EndComp
$Comp
L R R35
U 1 1 56B0ABED
P 3750 7450
F 0 "R35" V 3830 7450 50  0000 C CNN
F 1 "1M" V 3750 7450 50  0000 C CNN
F 2 "" V 3680 7450 50  0000 C CNN
F 3 "" H 3750 7450 50  0000 C CNN
	1    3750 7450
	0    1    1    0   
$EndComp
$Comp
L R R36
U 1 1 56B0ABEE
P 2650 7850
F 0 "R36" V 2730 7850 50  0000 C CNN
F 1 "1K" V 2650 7850 50  0000 C CNN
F 2 "" V 2580 7850 50  0000 C CNN
F 3 "" H 2650 7850 50  0000 C CNN
	1    2650 7850
	1    0    0    -1  
$EndComp
$Comp
L R R34
U 1 1 56B0ABEF
P 2150 7350
F 0 "R34" V 2230 7350 50  0000 C CNN
F 1 "10K" V 2150 7350 50  0000 C CNN
F 2 "" V 2080 7350 50  0000 C CNN
F 3 "" H 2150 7350 50  0000 C CNN
	1    2150 7350
	0    1    1    0   
$EndComp
$Comp
L POT-RESCUE-ss_pic RV5
U 1 1 56B0ABF0
P 3000 6850
F 0 "RV5" H 3000 6750 50  0000 C CNN
F 1 "50K" H 3000 6850 50  0000 C CNN
F 2 "" H 3000 6850 50  0000 C CNN
F 3 "" H 3000 6850 50  0000 C CNN
	1    3000 6850
	1    0    0    -1  
$EndComp
$Comp
L C C20
U 1 1 56B0ABF2
P 2450 7850
F 0 "C20" H 2475 7950 50  0000 L CNN
F 1 "0.01" H 2450 7750 50  0000 L CNN
F 2 "" H 2488 7700 50  0000 C CNN
F 3 "" H 2450 7850 50  0000 C CNN
	1    2450 7850
	1    0    0    -1  
$EndComp
Text GLabel 1850 7350 0    60   Input ~ 0
Termocouple
$Comp
L R R32
U 1 1 56B0ABF3
P 1950 7100
F 0 "R32" V 2030 7100 50  0000 C CNN
F 1 "1K" V 1950 7100 50  0000 C CNN
F 2 "" V 1880 7100 50  0000 C CNN
F 3 "" H 1950 7100 50  0000 C CNN
	1    1950 7100
	1    0    0    -1  
$EndComp
$Comp
L POT-RESCUE-ss_pic RV4
U 1 1 56B0ABF4
P 1550 6800
F 0 "RV4" H 1550 6700 50  0000 C CNN
F 1 "10K" H 1550 6800 50  0000 C CNN
F 2 "" H 1550 6800 50  0000 C CNN
F 3 "" H 1550 6800 50  0000 C CNN
	1    1550 6800
	1    0    0    -1  
$EndComp
$Comp
L +5V #PWR41
U 1 1 56B0ABF5
P 1200 6700
F 0 "#PWR41" H 1200 6550 50  0001 C CNN
F 1 "+5V" H 1200 6840 50  0000 C CNN
F 2 "" H 1200 6700 50  0000 C CNN
F 3 "" H 1200 6700 50  0000 C CNN
	1    1200 6700
	1    0    0    -1  
$EndComp
$Comp
L +5V #PWR42
U 1 1 56B0ABF6
P 3000 7150
F 0 "#PWR42" H 3000 7000 50  0001 C CNN
F 1 "+5V" H 3000 7290 50  0000 C CNN
F 2 "" H 3000 7150 50  0000 C CNN
F 3 "" H 3000 7150 50  0000 C CNN
	1    3000 7150
	1    0    0    -1  
$EndComp
$Comp
L GND #PWR44
U 1 1 56B0ABF7
P 3000 7750
F 0 "#PWR44" H 3000 7500 50  0001 C CNN
F 1 "GND" H 3000 7600 50  0000 C CNN
F 2 "" H 3000 7750 50  0000 C CNN
F 3 "" H 3000 7750 50  0000 C CNN
	1    3000 7750
	1    0    0    -1  
$EndComp
$Comp
L C C19
U 1 1 56B0ABF8
P 4000 7700
F 0 "C19" H 4025 7800 50  0000 L CNN
F 1 "0.01" H 4025 7600 50  0000 L CNN
F 2 "" H 4038 7550 50  0000 C CNN
F 3 "" H 4000 7700 50  0000 C CNN
	1    4000 7700
	1    0    0    -1  
$EndComp
$Comp
L GND #PWR46
U 1 1 56B0ABF9
P 4000 7950
F 0 "#PWR46" H 4000 7700 50  0001 C CNN
F 1 "GND" H 4000 7800 50  0000 C CNN
F 2 "" H 4000 7950 50  0000 C CNN
F 3 "" H 4000 7950 50  0000 C CNN
	1    4000 7950
	1    0    0    -1  
$EndComp
$Comp
L R R4
U 1 1 56B0ABFA
P 3525 1750
F 0 "R4" V 3605 1750 50  0000 C CNN
F 1 "120K" V 3525 1750 50  0000 C CNN
F 2 "" V 3455 1750 50  0000 C CNN
F 3 "" H 3525 1750 50  0000 C CNN
	1    3525 1750
	1    0    0    -1  
$EndComp
$Comp
L R R33
U 1 1 56B0ABFB
P 3500 7150
F 0 "R33" V 3580 7150 50  0000 C CNN
F 1 "120K" V 3500 7150 50  0000 C CNN
F 2 "" V 3430 7150 50  0000 C CNN
F 3 "" H 3500 7150 50  0000 C CNN
	1    3500 7150
	1    0    0    -1  
$EndComp
$Comp
L GND #PWR47
U 1 1 56B0DD88
P 2650 8200
F 0 "#PWR47" H 2650 7950 50  0001 C CNN
F 1 "GND" H 2650 8050 50  0000 C CNN
F 2 "" H 2650 8200 50  0000 C CNN
F 3 "" H 2650 8200 50  0000 C CNN
	1    2650 8200
	1    0    0    -1  
$EndComp
$Comp
L LM358 U5
U 2 1 56B0DD8E
P 3100 9600
F 0 "U5" H 3050 9800 50  0000 L CNN
F 1 "MCP6002" H 3050 9350 50  0000 L CNN
F 2 "" H 3100 9600 50  0000 C CNN
F 3 "" H 3100 9600 50  0000 C CNN
	2    3100 9600
	1    0    0    -1  
$EndComp
$Comp
L R R40
U 1 1 56B0DD94
P 3750 9600
F 0 "R40" V 3830 9600 50  0000 C CNN
F 1 "1M" V 3750 9600 50  0000 C CNN
F 2 "" V 3680 9600 50  0000 C CNN
F 3 "" H 3750 9600 50  0000 C CNN
	1    3750 9600
	0    1    1    0   
$EndComp
$Comp
L R R41
U 1 1 56B0DD9A
P 2650 10000
F 0 "R41" V 2730 10000 50  0000 C CNN
F 1 "1K" V 2650 10000 50  0000 C CNN
F 2 "" V 2580 10000 50  0000 C CNN
F 3 "" H 2650 10000 50  0000 C CNN
	1    2650 10000
	1    0    0    -1  
$EndComp
$Comp
L R R39
U 1 1 56B0DDA0
P 2150 9500
F 0 "R39" V 2230 9500 50  0000 C CNN
F 1 "10K" V 2150 9500 50  0000 C CNN
F 2 "" V 2080 9500 50  0000 C CNN
F 3 "" H 2150 9500 50  0000 C CNN
	1    2150 9500
	0    1    1    0   
$EndComp
$Comp
L POT-RESCUE-ss_pic RV7
U 1 1 56B0DDA6
P 3000 9000
F 0 "RV7" H 3000 8900 50  0000 C CNN
F 1 "50K" H 3000 9000 50  0000 C CNN
F 2 "" H 3000 9000 50  0000 C CNN
F 3 "" H 3000 9000 50  0000 C CNN
	1    3000 9000
	1    0    0    -1  
$EndComp
$Comp
L GND #PWR52
U 1 1 56B0DDB6
P 2650 10350
F 0 "#PWR52" H 2650 10100 50  0001 C CNN
F 1 "GND" H 2650 10200 50  0000 C CNN
F 2 "" H 2650 10350 50  0000 C CNN
F 3 "" H 2650 10350 50  0000 C CNN
	1    2650 10350
	1    0    0    -1  
$EndComp
$Comp
L C C22
U 1 1 56B0DDBD
P 2450 10000
F 0 "C22" H 2475 10100 50  0000 L CNN
F 1 "0.01" H 2450 9900 50  0000 L CNN
F 2 "" H 2488 9850 50  0000 C CNN
F 3 "" H 2450 10000 50  0000 C CNN
	1    2450 10000
	1    0    0    -1  
$EndComp
Text GLabel 1850 9500 0    60   Input ~ 0
Termocouple
$Comp
L R R37
U 1 1 56B0DDCA
P 1950 9250
F 0 "R37" V 2030 9250 50  0000 C CNN
F 1 "1K" V 1950 9250 50  0000 C CNN
F 2 "" V 1880 9250 50  0000 C CNN
F 3 "" H 1950 9250 50  0000 C CNN
	1    1950 9250
	1    0    0    -1  
$EndComp
$Comp
L POT-RESCUE-ss_pic RV6
U 1 1 56B0DDD0
P 1550 8950
F 0 "RV6" H 1550 8850 50  0000 C CNN
F 1 "10K" H 1550 8950 50  0000 C CNN
F 2 "" H 1550 8950 50  0000 C CNN
F 3 "" H 1550 8950 50  0000 C CNN
	1    1550 8950
	1    0    0    -1  
$EndComp
$Comp
L +5V #PWR48
U 1 1 56B0DDDA
P 1200 8850
F 0 "#PWR48" H 1200 8700 50  0001 C CNN
F 1 "+5V" H 1200 8990 50  0000 C CNN
F 2 "" H 1200 8850 50  0000 C CNN
F 3 "" H 1200 8850 50  0000 C CNN
	1    1200 8850
	1    0    0    -1  
$EndComp
$Comp
L +5V #PWR49
U 1 1 56B0DDE2
P 3000 9300
F 0 "#PWR49" H 3000 9150 50  0001 C CNN
F 1 "+5V" H 3000 9440 50  0000 C CNN
F 2 "" H 3000 9300 50  0000 C CNN
F 3 "" H 3000 9300 50  0000 C CNN
	1    3000 9300
	1    0    0    -1  
$EndComp
$Comp
L GND #PWR50
U 1 1 56B0DDE8
P 3000 9900
F 0 "#PWR50" H 3000 9650 50  0001 C CNN
F 1 "GND" H 3000 9750 50  0000 C CNN
F 2 "" H 3000 9900 50  0000 C CNN
F 3 "" H 3000 9900 50  0000 C CNN
	1    3000 9900
	1    0    0    -1  
$EndComp
$Comp
L C C21
U 1 1 56B0DDEE
P 4000 9850
F 0 "C21" H 4025 9950 50  0000 L CNN
F 1 "0.01" H 4025 9750 50  0000 L CNN
F 2 "" H 4038 9700 50  0000 C CNN
F 3 "" H 4000 9850 50  0000 C CNN
	1    4000 9850
	1    0    0    -1  
$EndComp
$Comp
L GND #PWR51
U 1 1 56B0DDF6
P 4000 10100
F 0 "#PWR51" H 4000 9850 50  0001 C CNN
F 1 "GND" H 4000 9950 50  0000 C CNN
F 2 "" H 4000 10100 50  0000 C CNN
F 3 "" H 4000 10100 50  0000 C CNN
	1    4000 10100
	1    0    0    -1  
$EndComp
$Comp
L R R38
U 1 1 56B0DE00
P 3500 9300
F 0 "R38" V 3580 9300 50  0000 C CNN
F 1 "120K" V 3500 9300 50  0000 C CNN
F 2 "" V 3430 9300 50  0000 C CNN
F 3 "" H 3500 9300 50  0000 C CNN
	1    3500 9300
	1    0    0    -1  
$EndComp
Text Notes 1100 9350 0    60   ~ 0
Optional
Text Notes 1100 7200 0    60   ~ 0
Optional
Text Notes 1100 1800 0    60   ~ 0
Optional
Text Notes 1075 10475 0    60   ~ 0
3 channel\n_4CH
$Comp
L Q_NMOS_GDS Q2
U 1 1 56B1040C
P 5700 1700
F 0 "Q2" H 6000 1750 50  0000 R CNN
F 1 "NMOS" H 6100 1650 50  0000 R CNN
F 2 "" H 5900 1800 50  0000 C CNN
F 3 "" H 5700 1700 50  0000 C CNN
	1    5700 1700
	-1   0    0    -1  
$EndComp
$Comp
L +24V #PWR1
U 1 1 56B106FD
P 5600 1200
F 0 "#PWR1" H 5600 1050 50  0001 C CNN
F 1 "+24V" H 5600 1340 50  0000 C CNN
F 2 "" H 5600 1200 50  0000 C CNN
F 3 "" H 5600 1200 50  0000 C CNN
	1    5600 1200
	-1   0    0    -1  
$EndComp
$Comp
L CONN_01X02 P1
U 1 1 56B110DD
P 5300 1350
F 0 "P1" H 5300 1500 50  0000 C CNN
F 1 "IRON" V 5400 1350 50  0000 C CNN
F 2 "" H 5300 1350 50  0000 C CNN
F 3 "" H 5300 1350 50  0000 C CNN
	1    5300 1350
	-1   0    0    -1  
$EndComp
$Comp
L R R7
U 1 1 56B121AE
P 6000 1950
F 0 "R7" V 6080 1950 50  0000 C CNN
F 1 "10K" V 6000 1950 50  0000 C CNN
F 2 "" V 5930 1950 50  0000 C CNN
F 3 "" H 6000 1950 50  0000 C CNN
	1    6000 1950
	-1   0    0    -1  
$EndComp
$Comp
L R R2
U 1 1 56B12262
P 6250 1700
F 0 "R2" V 6330 1700 50  0000 C CNN
F 1 "16" V 6250 1700 50  0000 C CNN
F 2 "" V 6180 1700 50  0000 C CNN
F 3 "" H 6250 1700 50  0000 C CNN
	1    6250 1700
	0    -1   1    0   
$EndComp
$Comp
L GND #PWR10
U 1 1 56B1276A
P 6000 2200
F 0 "#PWR10" H 6000 1950 50  0001 C CNN
F 1 "GND" H 6000 2050 50  0000 C CNN
F 2 "" H 6000 2200 50  0000 C CNN
F 3 "" H 6000 2200 50  0000 C CNN
	1    6000 2200
	-1   0    0    -1  
$EndComp
$Comp
L GND #PWR7
U 1 1 56B12817
P 5600 2000
F 0 "#PWR7" H 5600 1750 50  0001 C CNN
F 1 "GND" H 5600 1850 50  0000 C CNN
F 2 "" H 5600 2000 50  0000 C CNN
F 3 "" H 5600 2000 50  0000 C CNN
	1    5600 2000
	-1   0    0    -1  
$EndComp
$Comp
L Q_NMOS_GDS Q4
U 1 1 56B1388A
P 5700 3400
F 0 "Q4" H 6000 3450 50  0000 R CNN
F 1 "NMOS" H 6100 3350 50  0000 R CNN
F 2 "" H 5900 3500 50  0000 C CNN
F 3 "" H 5700 3400 50  0000 C CNN
	1    5700 3400
	-1   0    0    -1  
$EndComp
$Comp
L +24V #PWR15
U 1 1 56B13890
P 5600 2900
F 0 "#PWR15" H 5600 2750 50  0001 C CNN
F 1 "+24V" H 5600 3040 50  0000 C CNN
F 2 "" H 5600 2900 50  0000 C CNN
F 3 "" H 5600 2900 50  0000 C CNN
	1    5600 2900
	-1   0    0    -1  
$EndComp
$Comp
L CONN_01X02 P4
U 1 1 56B13899
P 5300 3050
F 0 "P4" H 5300 3200 50  0000 C CNN
F 1 "FAN" V 5400 3050 50  0000 C CNN
F 2 "" H 5300 3050 50  0000 C CNN
F 3 "" H 5300 3050 50  0000 C CNN
	1    5300 3050
	-1   0    0    -1  
$EndComp
$Comp
L R R16
U 1 1 56B138A3
P 6000 3650
F 0 "R16" V 6080 3650 50  0000 C CNN
F 1 "10K" V 6000 3650 50  0000 C CNN
F 2 "" V 5930 3650 50  0000 C CNN
F 3 "" H 6000 3650 50  0000 C CNN
	1    6000 3650
	-1   0    0    -1  
$EndComp
$Comp
L R R13
U 1 1 56B138A9
P 6250 3400
F 0 "R13" V 6330 3400 50  0000 C CNN
F 1 "16" V 6250 3400 50  0000 C CNN
F 2 "" V 6180 3400 50  0000 C CNN
F 3 "" H 6250 3400 50  0000 C CNN
	1    6250 3400
	0    -1   1    0   
$EndComp
$Comp
L GND #PWR23
U 1 1 56B138AF
P 6000 3900
F 0 "#PWR23" H 6000 3650 50  0001 C CNN
F 1 "GND" H 6000 3750 50  0000 C CNN
F 2 "" H 6000 3900 50  0000 C CNN
F 3 "" H 6000 3900 50  0000 C CNN
	1    6000 3900
	-1   0    0    -1  
$EndComp
$Comp
L GND #PWR21
U 1 1 56B138B5
P 5600 3700
F 0 "#PWR21" H 5600 3450 50  0001 C CNN
F 1 "GND" H 5600 3550 50  0000 C CNN
F 2 "" H 5600 3700 50  0000 C CNN
F 3 "" H 5600 3700 50  0000 C CNN
	1    5600 3700
	-1   0    0    -1  
$EndComp
$Comp
L C C12
U 1 1 56B16011
P 8025 7575
F 0 "C12" H 8050 7675 50  0000 L CNN
F 1 "0.1" H 8050 7475 50  0000 L CNN
F 2 "" H 8063 7425 50  0000 C CNN
F 3 "" H 8025 7575 50  0000 C CNN
	1    8025 7575
	1    0    0    -1  
$EndComp
$Comp
L C C13
U 1 1 56B160E3
P 8275 7575
F 0 "C13" H 8300 7675 50  0000 L CNN
F 1 "0.1" H 8300 7475 50  0000 L CNN
F 2 "" H 8313 7425 50  0000 C CNN
F 3 "" H 8275 7575 50  0000 C CNN
	1    8275 7575
	1    0    0    -1  
$EndComp
$Comp
L C C14
U 1 1 56B161A0
P 8525 7575
F 0 "C14" H 8550 7675 50  0000 L CNN
F 1 "0.1" H 8550 7475 50  0000 L CNN
F 2 "" H 8563 7425 50  0000 C CNN
F 3 "" H 8525 7575 50  0000 C CNN
	1    8525 7575
	1    0    0    -1  
$EndComp
$Comp
L C C15
U 1 1 56B1625E
P 8775 7575
F 0 "C15" H 8800 7675 50  0000 L CNN
F 1 "0.1" H 8800 7475 50  0000 L CNN
F 2 "" H 8813 7425 50  0000 C CNN
F 3 "" H 8775 7575 50  0000 C CNN
	1    8775 7575
	1    0    0    -1  
$EndComp
$Comp
L C C16
U 1 1 56B1631E
P 9025 7575
F 0 "C16" H 9050 7675 50  0000 L CNN
F 1 "0.1" H 9050 7475 50  0000 L CNN
F 2 "" H 9063 7425 50  0000 C CNN
F 3 "" H 9025 7575 50  0000 C CNN
	1    9025 7575
	1    0    0    -1  
$EndComp
$Comp
L C C17
U 1 1 56B1650C
P 9275 7575
F 0 "C17" H 9300 7675 50  0000 L CNN
F 1 "0.1" H 9300 7475 50  0000 L CNN
F 2 "" H 9313 7425 50  0000 C CNN
F 3 "" H 9275 7575 50  0000 C CNN
	1    9275 7575
	1    0    0    -1  
$EndComp
$Comp
L GND #PWR45
U 1 1 56B16A28
P 8775 7925
F 0 "#PWR45" H 8775 7675 50  0001 C CNN
F 1 "GND" H 8775 7775 50  0000 C CNN
F 2 "" H 8775 7925 50  0000 C CNN
F 3 "" H 8775 7925 50  0000 C CNN
	1    8775 7925
	1    0    0    -1  
$EndComp
$Comp
L +5V #PWR43
U 1 1 56B17164
P 8775 7225
F 0 "#PWR43" H 8775 7075 50  0001 C CNN
F 1 "+5V" H 8775 7365 50  0000 C CNN
F 2 "" H 8775 7225 50  0000 C CNN
F 3 "" H 8775 7225 50  0000 C CNN
	1    8775 7225
	1    0    0    -1  
$EndComp
Entry Wire Line
	13100 2300 13000 2400
Entry Wire Line
	13100 2400 13000 2500
Entry Wire Line
	13100 2500 13000 2600
Entry Wire Line
	13100 2600 13000 2700
Entry Wire Line
	13100 2700 13000 2800
$Comp
L R_PACK4 RP1
U 1 1 56B1921C
P 13700 2750
F 0 "RP1" H 13500 2750 50  0000 C CNN
F 1 "4K7" H 13700 2950 50  0000 C CNN
F 2 "" H 13700 2750 50  0000 C CNN
F 3 "" H 13700 2750 50  0000 C CNN
	1    13700 2750
	-1   0    0    -1  
$EndComp
$Comp
L CONN_01X08 P3
U 1 1 56B17A71
P 14200 2450
F 0 "P3" H 14200 2900 50  0000 C CNN
F 1 "LCD_CONN" V 14300 2450 50  0000 C CNN
F 2 "" H 14200 2450 50  0000 C CNN
F 3 "" H 14200 2450 50  0000 C CNN
	1    14200 2450
	1    0    0    -1  
$EndComp
$Comp
L GND #PWR17
U 1 1 56B1A026
P 13900 2900
F 0 "#PWR17" H 13900 2650 50  0001 C CNN
F 1 "GND" H 13900 2750 50  0000 C CNN
F 2 "" H 13900 2900 50  0000 C CNN
F 3 "" H 13900 2900 50  0000 C CNN
	1    13900 2900
	-1   0    0    -1  
$EndComp
$Comp
L R R11
U 1 1 56B1B206
P 13700 2300
F 0 "R11" V 13650 2150 50  0000 C CNN
F 1 "4K7" V 13700 2300 50  0000 C CNN
F 2 "" V 13630 2300 50  0000 C CNN
F 3 "" H 13700 2300 50  0000 C CNN
	1    13700 2300
	0    -1   1    0   
$EndComp
$Comp
L +3.3V #PWR9
U 1 1 56B1B94F
P 13900 2000
F 0 "#PWR9" H 13900 1850 50  0001 C CNN
F 1 "+3.3V" H 13900 2140 50  0000 C CNN
F 2 "" H 13900 2000 50  0000 C CNN
F 3 "" H 13900 2000 50  0000 C CNN
	1    13900 2000
	-1   0    0    -1  
$EndComp
Text Label 13400 2300 2    60   ~ 0
D/C
Text Label 13400 2400 2    60   ~ 0
Rst
Text Label 13400 2500 2    60   ~ 0
CS
Text Label 13400 2600 2    60   ~ 0
SDA
Text Label 13400 2700 2    60   ~ 0
SCLK
$Comp
L +5V #PWR4
U 1 1 56B1C765
P 13750 1450
F 0 "#PWR4" H 13750 1300 50  0001 C CNN
F 1 "+5V" H 13750 1590 50  0000 C CNN
F 2 "" H 13750 1450 50  0000 C CNN
F 3 "" H 13750 1450 50  0000 C CNN
	1    13750 1450
	-1   0    0    -1  
$EndComp
$Comp
L GND #PWR33
U 1 1 56B1E723
P 8900 5300
F 0 "#PWR33" H 8900 5050 50  0001 C CNN
F 1 "GND" H 8900 5150 50  0000 C CNN
F 2 "" H 8900 5300 50  0000 C CNN
F 3 "" H 8900 5300 50  0000 C CNN
	1    8900 5300
	1    0    0    -1  
$EndComp
$Comp
L GND #PWR39
U 1 1 56B1F752
P 8900 6500
F 0 "#PWR39" H 8900 6250 50  0001 C CNN
F 1 "GND" H 8900 6350 50  0000 C CNN
F 2 "" H 8900 6500 50  0000 C CNN
F 3 "" H 8900 6500 50  0000 C CNN
	1    8900 6500
	1    0    0    -1  
$EndComp
Text Notes 9100 6650 0    60   ~ 0
Iron standy\n_IRON_SW\nOptional
$Comp
L MOC3062M-RESCUE-ss_pic U3
U 1 1 56B210C0
P 6700 4750
F 0 "U3" H 6500 4950 50  0000 L CNN
F 1 "MOC3062M" H 6700 4950 50  0000 L CNN
F 2 "DIP-6" H 6500 4550 50  0000 L CIN
F 3 "" H 6690 4750 50  0000 L CNN
	1    6700 4750
	-1   0    0    -1  
$EndComp
$Comp
L R R24
U 1 1 56B21362
P 7250 4650
F 0 "R24" V 7330 4650 50  0000 C CNN
F 1 "220" V 7250 4650 50  0000 C CNN
F 2 "" V 7180 4650 50  0000 C CNN
F 3 "" H 7250 4650 50  0000 C CNN
	1    7250 4650
	0    1    1    0   
$EndComp
$Comp
L GND #PWR30
U 1 1 56B219D8
P 7100 4950
F 0 "#PWR30" H 7100 4700 50  0001 C CNN
F 1 "GND" H 7100 4800 50  0000 C CNN
F 2 "" H 7100 4950 50  0000 C CNN
F 3 "" H 7100 4950 50  0000 C CNN
	1    7100 4950
	1    0    0    -1  
$EndComp
$Comp
L R R29
U 1 1 56B22054
P 6350 5200
F 0 "R29" V 6430 5200 50  0000 C CNN
F 1 "10K" V 6350 5200 50  0000 C CNN
F 2 "" V 6280 5200 50  0000 C CNN
F 3 "" H 6350 5200 50  0000 C CNN
	1    6350 5200
	-1   0    0    1   
$EndComp
$Comp
L R R23
U 1 1 56B221CE
P 6150 4650
F 0 "R23" V 6230 4650 50  0000 C CNN
F 1 "330" V 6150 4650 50  0000 C CNN
F 2 "" V 6080 4650 50  0000 C CNN
F 3 "" H 6150 4650 50  0000 C CNN
	1    6150 4650
	0    1    1    0   
$EndComp
$Comp
L TRIAC U4
U 1 1 56B22A0A
P 5750 5450
F 0 "U4" H 5500 5800 50  0000 C CNN
F 1 "TRIAC" H 5450 5200 50  0000 C CNN
F 2 "" H 5750 5450 50  0000 C CNN
F 3 "" H 5750 5450 50  0000 C CNN
	1    5750 5450
	-1   0    0    -1  
$EndComp
$Comp
L R R31
U 1 1 56B23563
P 6100 5850
F 0 "R31" V 6180 5850 50  0000 C CNN
F 1 "330" V 6100 5850 50  0000 C CNN
F 2 "" V 6030 5850 50  0000 C CNN
F 3 "" H 6100 5850 50  0000 C CNN
	1    6100 5850
	0    1    1    0   
$EndComp
$Comp
L R R26
U 1 1 56B24055
P 5300 4900
F 0 "R26" V 5380 4900 50  0000 C CNN
F 1 "39" V 5300 4900 50  0000 C CNN
F 2 "" V 5230 4900 50  0000 C CNN
F 3 "" H 5300 4900 50  0000 C CNN
	1    5300 4900
	-1   0    0    1   
$EndComp
$Comp
L C C10
U 1 1 56B2415A
P 5300 5550
F 0 "C10" H 5325 5650 50  0000 L CNN
F 1 "0.01" H 5300 5450 50  0000 L CNN
F 2 "" H 5338 5400 50  0000 C CNN
F 3 "" H 5300 5550 50  0000 C CNN
	1    5300 5550
	1    0    0    -1  
$EndComp
$Comp
L CONN_01X02 P9
U 1 1 56B254CE
P 6700 6100
F 0 "P9" H 6700 6250 50  0000 C CNN
F 1 "HOTAIR" V 6800 6100 50  0000 C CNN
F 2 "" H 6700 6100 50  0000 C CNN
F 3 "" H 6700 6100 50  0000 C CNN
	1    6700 6100
	1    0    0    -1  
$EndComp
$Comp
L CONN_01X02 P11
U 1 1 56B255E3
P 6700 6450
F 0 "P11" H 6700 6600 50  0000 C CNN
F 1 "220VAC" V 6800 6450 50  0000 C CNN
F 2 "" H 6700 6450 50  0000 C CNN
F 3 "" H 6700 6450 50  0000 C CNN
	1    6700 6450
	1    0    0    -1  
$EndComp
$Comp
L Q_NPN_BCE Q1
U 1 1 56B2719C
P 13650 1650
F 0 "Q1" H 13600 1900 50  0000 R CNN
F 1 "NPN" H 13600 1800 50  0000 R CNN
F 2 "" H 13850 1750 50  0000 C CNN
F 3 "" H 13650 1650 50  0000 C CNN
	1    13650 1650
	1    0    0    -1  
$EndComp
$Comp
L R R9
U 1 1 56B2777A
P 13750 2000
F 0 "R9" V 13650 2000 50  0000 C CNN
F 1 "220" V 13750 2000 50  0000 C CNN
F 2 "" V 13680 2000 50  0000 C CNN
F 3 "" H 13750 2000 50  0000 C CNN
	1    13750 2000
	1    0    0    1   
$EndComp
$Comp
L R R5
U 1 1 56B2847D
P 13450 1900
F 0 "R5" V 13350 1900 50  0000 C CNN
F 1 "10K" V 13450 1900 50  0000 C CNN
F 2 "" V 13380 1900 50  0000 C CNN
F 3 "" H 13450 1900 50  0000 C CNN
	1    13450 1900
	1    0    0    1   
$EndComp
Entry Wire Line
	13100 2200 13000 2300
Text Label 13400 2200 2    60   ~ 0
Led
$Comp
L Q_NMOS_GDS Q7
U 1 1 56B690B3
P 1825 4150
F 0 "Q7" H 2125 4200 50  0000 R CNN
F 1 "NMOS" H 2225 4100 50  0000 R CNN
F 2 "" H 2025 4250 50  0000 C CNN
F 3 "" H 1825 4150 50  0000 C CNN
	1    1825 4150
	-1   0    0    -1  
$EndComp
$Comp
L +24V #PWR2
U 1 1 56B690B9
P 7700 1200
F 0 "#PWR2" H 7700 1050 50  0001 C CNN
F 1 "+24V" H 7700 1340 50  0000 C CNN
F 2 "" H 7700 1200 50  0000 C CNN
F 3 "" H 7700 1200 50  0000 C CNN
	1    7700 1200
	-1   0    0    -1  
$EndComp
$Comp
L CONN_01X02 P2
U 1 1 56B690C3
P 7400 1350
F 0 "P2" H 7400 1500 50  0000 C CNN
F 1 "PWM+" V 7500 1350 50  0000 C CNN
F 2 "" H 7400 1350 50  0000 C CNN
F 3 "" H 7400 1350 50  0000 C CNN
	1    7400 1350
	-1   0    0    -1  
$EndComp
$Comp
L R R8
U 1 1 56B690CD
P 8100 1950
F 0 "R8" V 8180 1950 50  0000 C CNN
F 1 "10K" V 8100 1950 50  0000 C CNN
F 2 "" V 8030 1950 50  0000 C CNN
F 3 "" H 8100 1950 50  0000 C CNN
	1    8100 1950
	-1   0    0    -1  
$EndComp
$Comp
L R R3
U 1 1 56B690D3
P 8300 1700
F 0 "R3" V 8380 1700 50  0000 C CNN
F 1 "16" V 8300 1700 50  0000 C CNN
F 2 "" V 8230 1700 50  0000 C CNN
F 3 "" H 8300 1700 50  0000 C CNN
	1    8300 1700
	0    -1   1    0   
$EndComp
$Comp
L GND #PWR11
U 1 1 56B690D9
P 8100 2200
F 0 "#PWR11" H 8100 1950 50  0001 C CNN
F 1 "GND" H 8100 2050 50  0000 C CNN
F 2 "" H 8100 2200 50  0000 C CNN
F 3 "" H 8100 2200 50  0000 C CNN
	1    8100 2200
	-1   0    0    -1  
$EndComp
$Comp
L GND #PWR8
U 1 1 56B690DF
P 7700 2000
F 0 "#PWR8" H 7700 1750 50  0001 C CNN
F 1 "GND" H 7700 1850 50  0000 C CNN
F 2 "" H 7700 2000 50  0000 C CNN
F 3 "" H 7700 2000 50  0000 C CNN
	1    7700 2000
	-1   0    0    -1  
$EndComp
$Comp
L Q_NMOS_GDS Q5
U 1 1 56C6F195
P 7800 3400
F 0 "Q5" H 8100 3450 50  0000 R CNN
F 1 "NMOS" H 8200 3350 50  0000 R CNN
F 2 "" H 8000 3500 50  0000 C CNN
F 3 "" H 7800 3400 50  0000 C CNN
	1    7800 3400
	-1   0    0    -1  
$EndComp
$Comp
L +24V #PWR16
U 1 1 56C6F19B
P 7700 2900
F 0 "#PWR16" H 7700 2750 50  0001 C CNN
F 1 "+24V" H 7700 3040 50  0000 C CNN
F 2 "" H 7700 2900 50  0000 C CNN
F 3 "" H 7700 2900 50  0000 C CNN
	1    7700 2900
	-1   0    0    -1  
$EndComp
$Comp
L CONN_01X02 P5
U 1 1 56C6F1A1
P 7400 3050
F 0 "P5" H 7400 3200 50  0000 C CNN
F 1 "PWM" V 7500 3050 50  0000 C CNN
F 2 "" H 7400 3050 50  0000 C CNN
F 3 "" H 7400 3050 50  0000 C CNN
	1    7400 3050
	-1   0    0    -1  
$EndComp
$Comp
L R R17
U 1 1 56C6F1A7
P 8100 3650
F 0 "R17" V 8180 3650 50  0000 C CNN
F 1 "10K" V 8100 3650 50  0000 C CNN
F 2 "" V 8030 3650 50  0000 C CNN
F 3 "" H 8100 3650 50  0000 C CNN
	1    8100 3650
	-1   0    0    -1  
$EndComp
$Comp
L R R14
U 1 1 56C6F1AD
P 8350 3400
F 0 "R14" V 8430 3400 50  0000 C CNN
F 1 "16" V 8350 3400 50  0000 C CNN
F 2 "" V 8280 3400 50  0000 C CNN
F 3 "" H 8350 3400 50  0000 C CNN
	1    8350 3400
	0    -1   1    0   
$EndComp
$Comp
L GND #PWR24
U 1 1 56C6F1B3
P 8100 3900
F 0 "#PWR24" H 8100 3650 50  0001 C CNN
F 1 "GND" H 8100 3750 50  0000 C CNN
F 2 "" H 8100 3900 50  0000 C CNN
F 3 "" H 8100 3900 50  0000 C CNN
	1    8100 3900
	-1   0    0    -1  
$EndComp
$Comp
L GND #PWR22
U 1 1 56C6F1B9
P 7700 3700
F 0 "#PWR22" H 7700 3450 50  0001 C CNN
F 1 "GND" H 7700 3550 50  0000 C CNN
F 2 "" H 7700 3700 50  0000 C CNN
F 3 "" H 7700 3700 50  0000 C CNN
	1    7700 3700
	-1   0    0    -1  
$EndComp
$Comp
L SW_PUSH SW9
U 1 1 56C72782
P 11450 5200
F 0 "SW9" H 11600 5310 50  0000 C CNN
F 1 "PWMPlus+" H 11450 5120 50  0001 C CNN
F 2 "" H 11450 5200 50  0000 C CNN
F 3 "" H 11450 5200 50  0000 C CNN
	1    11450 5200
	1    0    0    -1  
$EndComp
$Comp
L SW_PUSH SW10
U 1 1 56C7278E
P 11450 5400
F 0 "SW10" H 11600 5510 50  0000 C CNN
F 1 "PWMPlus-" H 11450 5320 50  0001 C CNN
F 2 "" H 11450 5400 50  0000 C CNN
F 3 "" H 11450 5400 50  0000 C CNN
	1    11450 5400
	1    0    0    -1  
$EndComp
$Comp
L SW_PUSH SW11
U 1 1 56C72794
P 11450 5600
F 0 "SW11" H 11600 5710 50  0000 C CNN
F 1 "PWMPlusOn" H 11450 5520 50  0001 C CNN
F 2 "" H 11450 5600 50  0000 C CNN
F 3 "" H 11450 5600 50  0000 C CNN
	1    11450 5600
	1    0    0    -1  
$EndComp
$Comp
L SW_PUSH SW12
U 1 1 56C729AA
P 11450 5800
F 0 "SW12" H 11600 5910 50  0000 C CNN
F 1 "PWM+" H 11450 5720 50  0001 C CNN
F 2 "" H 11450 5800 50  0000 C CNN
F 3 "" H 11450 5800 50  0000 C CNN
	1    11450 5800
	1    0    0    -1  
$EndComp
$Comp
L SW_PUSH SW13
U 1 1 56C729B0
P 11450 6000
F 0 "SW13" H 11600 6110 50  0000 C CNN
F 1 "PWM-" H 11450 5920 50  0001 C CNN
F 2 "" H 11450 6000 50  0000 C CNN
F 3 "" H 11450 6000 50  0000 C CNN
	1    11450 6000
	1    0    0    -1  
$EndComp
$Comp
L SW_PUSH SW14
U 1 1 56C729B6
P 11450 6200
F 0 "SW14" H 11600 6310 50  0000 C CNN
F 1 "PWMOn" H 11450 6120 50  0001 C CNN
F 2 "" H 11450 6200 50  0000 C CNN
F 3 "" H 11450 6200 50  0000 C CNN
	1    11450 6200
	1    0    0    -1  
$EndComp
$Comp
L GND #PWR38
U 1 1 56C72EDB
P 11900 6350
F 0 "#PWR38" H 11900 6100 50  0001 C CNN
F 1 "GND" H 11900 6200 50  0000 C CNN
F 2 "" H 11900 6350 50  0000 C CNN
F 3 "" H 11900 6350 50  0000 C CNN
	1    11900 6350
	1    0    0    -1  
$EndComp
Entry Wire Line
	10650 6200 10550 6100
Entry Wire Line
	10650 6000 10550 5900
Entry Wire Line
	10650 5800 10550 5700
Entry Wire Line
	10650 5600 10550 5500
Entry Wire Line
	10650 5400 10550 5300
Entry Wire Line
	10650 5200 10550 5100
Text Label 10700 5200 0    60   ~ 0
PWMPlus+
Text Label 10700 5400 0    60   ~ 0
PWMPlus-
Text Label 10700 5600 0    60   ~ 0
PWMPlusOn
Text Label 10700 5800 0    60   ~ 0
PWM+
Text Label 10700 6000 0    60   ~ 0
PWM-
Text Label 10700 6200 0    60   ~ 0
PWMOn
Entry Wire Line
	13100 4200 13000 4300
Entry Wire Line
	13100 4700 13000 4800
Entry Wire Line
	13100 4800 13000 4900
Entry Wire Line
	13100 4900 13000 5000
Entry Wire Line
	13100 5000 13000 5100
$Comp
L R_PACK4 RP2
U 1 1 57176327
P 14150 5050
F 0 "RP2" H 13950 5050 50  0000 C CNN
F 1 "4K7" H 14150 5250 50  0000 C CNN
F 2 "" H 14150 5050 50  0000 C CNN
F 3 "" H 14150 5050 50  0000 C CNN
	1    14150 5050
	-1   0    0    -1  
$EndComp
$Comp
L CONN_01X08 P6
U 1 1 5717632D
P 14650 4750
F 0 "P6" H 14650 5200 50  0000 C CNN
F 1 "LCD_CONN" V 14750 4750 50  0000 C CNN
F 2 "" H 14650 4750 50  0000 C CNN
F 3 "" H 14650 4750 50  0000 C CNN
	1    14650 4750
	1    0    0    -1  
$EndComp
$Comp
L GND #PWR31
U 1 1 57176333
P 14350 5200
F 0 "#PWR31" H 14350 4950 50  0001 C CNN
F 1 "GND" H 14350 5050 50  0000 C CNN
F 2 "" H 14350 5200 50  0000 C CNN
F 3 "" H 14350 5200 50  0000 C CNN
	1    14350 5200
	-1   0    0    -1  
$EndComp
$Comp
L R R21
U 1 1 57176339
P 13350 4200
F 0 "R21" V 13300 4050 50  0000 C CNN
F 1 "10K" V 13350 4200 50  0000 C CNN
F 2 "" V 13280 4200 50  0000 C CNN
F 3 "" H 13350 4200 50  0000 C CNN
	1    13350 4200
	0    -1   1    0   
$EndComp
$Comp
L +3.3V #PWR26
U 1 1 5717633F
P 14350 4300
F 0 "#PWR26" H 14350 4150 50  0001 C CNN
F 1 "+3.3V" H 14350 4440 50  0000 C CNN
F 2 "" H 14350 4300 50  0000 C CNN
F 3 "" H 14350 4300 50  0000 C CNN
	1    14350 4300
	-1   0    0    -1  
$EndComp
Text Label 13200 4200 2    60   ~ 0
CS
Text Label 13300 4700 2    60   ~ 0
Rst
Text Label 13475 4800 2    60   ~ 0
NOT_CS
Text Label 13325 4900 2    60   ~ 0
SDA
Text Label 13375 5000 2    60   ~ 0
SCLK
$Comp
L +5V #PWR18
U 1 1 5717634A
P 14200 3300
F 0 "#PWR18" H 14200 3150 50  0001 C CNN
F 1 "+5V" H 14200 3440 50  0000 C CNN
F 2 "" H 14200 3300 50  0000 C CNN
F 3 "" H 14200 3300 50  0000 C CNN
	1    14200 3300
	-1   0    0    -1  
$EndComp
$Comp
L Q_NPN_BCE Q6
U 1 1 57176350
P 14100 3625
F 0 "Q6" H 14375 3750 50  0000 R CNN
F 1 "NPN" H 14425 3675 50  0000 R CNN
F 2 "" H 14300 3725 50  0000 C CNN
F 3 "" H 14100 3625 50  0000 C CNN
	1    14100 3625
	1    0    0    -1  
$EndComp
$Comp
L R R19
U 1 1 57176356
P 14200 3975
F 0 "R19" V 14100 3975 50  0000 C CNN
F 1 "220" V 14200 3975 50  0000 C CNN
F 2 "" V 14130 3975 50  0000 C CNN
F 3 "" H 14200 3975 50  0000 C CNN
	1    14200 3975
	1    0    0    1   
$EndComp
$Comp
L R R15
U 1 1 5717635C
P 13600 3625
F 0 "R15" V 13500 3625 50  0000 C CNN
F 1 "10K" V 13600 3625 50  0000 C CNN
F 2 "" V 13530 3625 50  0000 C CNN
F 3 "" H 13600 3625 50  0000 C CNN
	1    13600 3625
	0    -1   1    0   
$EndComp
Entry Wire Line
	13100 3625 13000 3725
Text Label 13400 3625 2    60   ~ 0
Led
$Comp
L Q_NPN_BCE Q8
U 1 1 57178ED9
P 13700 4200
F 0 "Q8" H 13975 4200 50  0000 R CNN
F 1 "NPN" H 14025 4125 50  0000 R CNN
F 2 "" H 13900 4300 50  0000 C CNN
F 3 "" H 13700 4200 50  0000 C CNN
	1    13700 4200
	1    0    0    -1  
$EndComp
$Comp
L R R18
U 1 1 57179B93
P 13800 3800
F 0 "R18" V 13700 3800 50  0000 C CNN
F 1 "1K" V 13800 3800 50  0000 C CNN
F 2 "" V 13730 3800 50  0000 C CNN
F 3 "" H 13800 3800 50  0000 C CNN
	1    13800 3800
	-1   0    0    1   
$EndComp
$Comp
L GND #PWR27
U 1 1 5717A493
P 13800 4400
F 0 "#PWR27" H 13800 4150 50  0001 C CNN
F 1 "GND" H 13800 4250 50  0000 C CNN
F 2 "" H 13800 4400 50  0000 C CNN
F 3 "" H 13800 4400 50  0000 C CNN
	1    13800 4400
	-1   0    0    -1  
$EndComp
$Comp
L R R22
U 1 1 574303A2
P 14150 4600
F 0 "R22" V 14100 4450 50  0000 C CNN
F 1 "4K7" V 14150 4600 50  0000 C CNN
F 2 "" V 14080 4600 50  0000 C CNN
F 3 "" H 14150 4600 50  0000 C CNN
	1    14150 4600
	0    -1   1    0   
$EndComp
Text Label 13325 4600 2    60   ~ 0
D/C
Entry Wire Line
	13000 4700 13100 4600
Entry Wire Line
	13100 3975 13000 4075
Text Label 13475 3975 2    60   ~ 0
NOT_CS
Text Notes 14800 5125 0    67   ~ 0
Nokia LCD\nvdd, vddi\nled+\n\nrst\ncs\nsda\nsclk\ngnd, led-
$Comp
L C C7
U 1 1 57C94183
P 8650 5175
F 0 "C7" H 8675 5275 50  0000 L CNN
F 1 "0.1" H 8675 5075 50  0000 L CNN
F 2 "" H 8688 5025 50  0000 C CNN
F 3 "" H 8650 5175 50  0000 C CNN
	1    8650 5175
	1    0    0    -1  
$EndComp
$Comp
L GND #PWR34
U 1 1 57C94F1C
P 8650 5325
F 0 "#PWR34" H 8650 5075 50  0001 C CNN
F 1 "GND" H 8650 5175 50  0000 C CNN
F 2 "" H 8650 5325 50  0000 C CNN
F 3 "" H 8650 5325 50  0000 C CNN
	1    8650 5325
	1    0    0    -1  
$EndComp
$Comp
L C C11
U 1 1 57C96F24
P 8650 6375
F 0 "C11" H 8675 6475 50  0000 L CNN
F 1 "0.1" H 8675 6275 50  0000 L CNN
F 2 "" H 8688 6225 50  0000 C CNN
F 3 "" H 8650 6375 50  0000 C CNN
	1    8650 6375
	1    0    0    -1  
$EndComp
$Comp
L GND #PWR40
U 1 1 57C9B6F6
P 8650 6525
F 0 "#PWR40" H 8650 6275 50  0001 C CNN
F 1 "GND" H 8650 6375 50  0000 C CNN
F 2 "" H 8650 6525 50  0000 C CNN
F 3 "" H 8650 6525 50  0000 C CNN
	1    8650 6525
	1    0    0    -1  
$EndComp
Text Notes 14650 3350 0    60   ~ 0
Dual LCD only\n_DUAL
$Comp
L LM358 U1
U 2 1 57CA4888
P 3275 5150
F 0 "U1" H 3225 5350 50  0000 L CNN
F 1 "MCP6002" H 3225 4900 50  0000 L CNN
F 2 "" H 3275 5150 50  0000 C CNN
F 3 "" H 3275 5150 50  0000 C CNN
	2    3275 5150
	1    0    0    -1  
$EndComp
$Comp
L R R28
U 1 1 57CA488E
P 3925 5150
F 0 "R28" V 4005 5150 50  0000 C CNN
F 1 "1K*" V 3925 5150 50  0000 C CNN
F 2 "" V 3855 5150 50  0000 C CNN
F 3 "" H 3925 5150 50  0000 C CNN
	1    3925 5150
	0    1    1    0   
$EndComp
$Comp
L R R30
U 1 1 57CA4894
P 2825 5550
F 0 "R30" V 2905 5550 50  0000 C CNN
F 1 "1K" V 2825 5550 50  0000 C CNN
F 2 "" V 2755 5550 50  0000 C CNN
F 3 "" H 2825 5550 50  0000 C CNN
	1    2825 5550
	1    0    0    -1  
$EndComp
$Comp
L R R27
U 1 1 57CA489A
P 2225 5050
F 0 "R27" V 2305 5050 50  0000 C CNN
F 1 "22K" V 2225 5050 50  0000 C CNN
F 2 "" V 2155 5050 50  0000 C CNN
F 3 "" H 2225 5050 50  0000 C CNN
	1    2225 5050
	0    1    1    0   
$EndComp
$Comp
L POT-RESCUE-ss_pic RV3
U 1 1 57CA48A0
P 3175 4550
F 0 "RV3" H 3175 4450 50  0000 C CNN
F 1 "150K" H 3175 4550 50  0000 C CNN
F 2 "" H 3175 4550 50  0000 C CNN
F 3 "" H 3175 4550 50  0000 C CNN
	1    3175 4550
	1    0    0    -1  
$EndComp
$Comp
L GND #PWR37
U 1 1 57CA48A6
P 2825 5900
F 0 "#PWR37" H 2825 5650 50  0001 C CNN
F 1 "GND" H 2825 5750 50  0000 C CNN
F 2 "" H 2825 5900 50  0000 C CNN
F 3 "" H 2825 5900 50  0000 C CNN
	1    2825 5900
	1    0    0    -1  
$EndComp
$Comp
L C C9
U 1 1 57CA48AC
P 1975 5450
F 0 "C9" H 2000 5550 50  0000 L CNN
F 1 "0.1" H 1975 5350 50  0000 L CNN
F 2 "" H 2013 5300 50  0000 C CNN
F 3 "" H 1975 5450 50  0000 C CNN
	1    1975 5450
	1    0    0    -1  
$EndComp
$Comp
L +5V #PWR29
U 1 1 57CA48C5
P 3175 4850
F 0 "#PWR29" H 3175 4700 50  0001 C CNN
F 1 "+5V" H 3175 4990 50  0000 C CNN
F 2 "" H 3175 4850 50  0000 C CNN
F 3 "" H 3175 4850 50  0000 C CNN
	1    3175 4850
	1    0    0    -1  
$EndComp
$Comp
L GND #PWR35
U 1 1 57CA48CB
P 3175 5450
F 0 "#PWR35" H 3175 5200 50  0001 C CNN
F 1 "GND" H 3175 5300 50  0000 C CNN
F 2 "" H 3175 5450 50  0000 C CNN
F 3 "" H 3175 5450 50  0000 C CNN
	1    3175 5450
	1    0    0    -1  
$EndComp
$Comp
L C C8
U 1 1 57CA48D1
P 4175 5400
F 0 "C8" H 4200 5500 50  0000 L CNN
F 1 "0.01" H 4200 5300 50  0000 L CNN
F 2 "" H 4213 5250 50  0000 C CNN
F 3 "" H 4175 5400 50  0000 C CNN
	1    4175 5400
	1    0    0    -1  
$EndComp
$Comp
L GND #PWR36
U 1 1 57CA48D7
P 4175 5650
F 0 "#PWR36" H 4175 5400 50  0001 C CNN
F 1 "GND" H 4175 5500 50  0000 C CNN
F 2 "" H 4175 5650 50  0000 C CNN
F 3 "" H 4175 5650 50  0000 C CNN
	1    4175 5650
	1    0    0    -1  
$EndComp
$Comp
L R R25
U 1 1 57CA48DF
P 3675 4850
F 0 "R25" V 3755 4850 50  0000 C CNN
F 1 "120K" V 3675 4850 50  0000 C CNN
F 2 "" V 3605 4850 50  0000 C CNN
F 3 "" H 3675 4850 50  0000 C CNN
	1    3675 4850
	1    0    0    -1  
$EndComp
$Comp
L D_Small D3
U 1 1 57CA5B8B
P 2475 5525
F 0 "D3" H 2425 5450 50  0000 L CNN
F 1 "1N4148" H 2325 5375 50  0000 L CNN
F 2 "" V 2475 5525 50  0000 C CNN
F 3 "" V 2475 5525 50  0000 C CNN
	1    2475 5525
	0    1    1    0   
$EndComp
$Comp
L D_Small D4
U 1 1 57CA5F06
P 2600 5525
F 0 "D4" H 2550 5605 50  0000 L CNN
F 1 "1N4148" H 2450 5675 50  0000 L CNN
F 2 "" V 2600 5525 50  0000 C CNN
F 3 "" V 2600 5525 50  0000 C CNN
	1    2600 5525
	0    1    -1   0   
$EndComp
$Comp
L +24V #PWR20
U 1 1 57CB162A
P 1725 3550
F 0 "#PWR20" H 1725 3400 50  0001 C CNN
F 1 "+24V" H 1725 3690 50  0000 C CNN
F 2 "" H 1725 3550 50  0000 C CNN
F 3 "" H 1725 3550 50  0000 C CNN
	1    1725 3550
	-1   0    0    -1  
$EndComp
$Comp
L CONN_01X02 P8
U 1 1 57CB1630
P 1275 5100
F 0 "P8" H 1275 5250 50  0000 C CNN
F 1 "T12 IRON" V 1375 5100 50  0000 C CNN
F 2 "" H 1275 5100 50  0000 C CNN
F 3 "" H 1275 5100 50  0000 C CNN
	1    1275 5100
	-1   0    0    -1  
$EndComp
$Comp
L GND #PWR32
U 1 1 57CB2436
P 1475 5250
F 0 "#PWR32" H 1475 5000 50  0001 C CNN
F 1 "GND" H 1475 5100 50  0000 C CNN
F 2 "" H 1475 5250 50  0000 C CNN
F 3 "" H 1475 5250 50  0000 C CNN
	1    1475 5250
	1    0    0    -1  
$EndComp
$Comp
L IRS10752L U2
U 1 1 57CB46E3
P 3125 4200
F 0 "U2" H 3125 4650 60  0000 C CNN
F 1 "IRS10752L" H 3125 4250 60  0000 C CNN
F 2 "" H 3075 4200 60  0000 C CNN
F 3 "" H 3075 4200 60  0000 C CNN
	1    3125 4200
	-1   0    0    -1  
$EndComp
$Comp
L C C4
U 1 1 57CB5AD5
P 2475 3800
F 0 "C4" H 2500 3900 50  0000 L CNN
F 1 "0.1" H 2475 3700 50  0000 L CNN
F 2 "" H 2513 3650 50  0000 C CNN
F 3 "" H 2475 3800 50  0000 C CNN
	1    2475 3800
	-1   0    0    -1  
$EndComp
$Comp
L C C5
U 1 1 57CB5C7C
P 3800 3800
F 0 "C5" H 3825 3900 50  0000 L CNN
F 1 "0.1" H 3800 3700 50  0000 L CNN
F 2 "" H 3838 3650 50  0000 C CNN
F 3 "" H 3800 3800 50  0000 C CNN
	1    3800 3800
	-1   0    0    -1  
$EndComp
$Comp
L D_Small D1
U 1 1 57CB5F15
P 3150 3650
F 0 "D1" H 3100 3575 50  0000 L CNN
F 1 "UF4007" H 3000 3500 50  0000 L CNN
F 2 "" V 3150 3650 50  0000 C CNN
F 3 "" V 3150 3650 50  0000 C CNN
	1    3150 3650
	1    0    0    1   
$EndComp
$Comp
L R R20
U 1 1 57CB672F
P 2225 4150
F 0 "R20" V 2300 4150 50  0000 C CNN
F 1 "10" V 2225 4150 50  0000 C CNN
F 2 "" V 2155 4150 50  0000 C CNN
F 3 "" H 2225 4150 50  0000 C CNN
	1    2225 4150
	0    -1   1    0   
$EndComp
$Comp
L CP C6
U 1 1 57CB9070
P 4050 3800
F 0 "C6" H 4075 3900 50  0000 L CNN
F 1 "10" H 4075 3700 50  0000 L CNN
F 2 "" H 4088 3650 50  0000 C CNN
F 3 "" H 4050 3800 50  0000 C CNN
	1    4050 3800
	-1   0    0    -1  
$EndComp
$Comp
L CP C3
U 1 1 57CB939E
P 2225 3800
F 0 "C3" H 2250 3900 50  0000 L CNN
F 1 "10" H 2250 3700 50  0000 L CNN
F 2 "" H 2263 3650 50  0000 C CNN
F 3 "" H 2225 3800 50  0000 C CNN
	1    2225 3800
	-1   0    0    -1  
$EndComp
$Comp
L +12V #PWR19
U 1 1 57CBB8A0
P 4050 3500
F 0 "#PWR19" H 4050 3350 50  0001 C CNN
F 1 "+12V" H 4050 3640 50  0000 C CNN
F 2 "" H 4050 3500 50  0000 C CNN
F 3 "" H 4050 3500 50  0000 C CNN
	1    4050 3500
	-1   0    0    -1  
$EndComp
$Comp
L GND #PWR25
U 1 1 57CC0D56
P 4050 4175
F 0 "#PWR25" H 4050 3925 50  0001 C CNN
F 1 "GND" H 4050 4025 50  0000 C CNN
F 2 "" H 4050 4175 50  0000 C CNN
F 3 "" H 4050 4175 50  0000 C CNN
	1    4050 4175
	-1   0    0    -1  
$EndComp
$Comp
L Q_NMOS_GDS Q3
U 1 1 57CC6768
P 7800 1700
F 0 "Q3" H 8100 1750 50  0000 R CNN
F 1 "NMOS" H 8200 1650 50  0000 R CNN
F 2 "" H 8000 1800 50  0000 C CNN
F 3 "" H 7800 1700 50  0000 C CNN
	1    7800 1700
	-1   0    0    -1  
$EndComp
Text Notes 1075 6050 0    60   ~ 0
1 channel\nT12 Iron
$Sheet
S 6650 9200 1300 600 
U 5853A78D
F0 "LcdConnections" 60
F1 "lcd.sch" 60
$EndSheet
Text Notes 8750 2325 2    60   ~ 0
pic16f887\nonly
Text Notes 1075 8325 0    60   ~ 0
2 channel\nHotAir
Text Notes 1100 2925 0    60   ~ 0
1 channel\nIron
Text Notes 6800 2375 2    60   ~ 0
1 channel\nIron
Text Notes 6800 4075 2    60   ~ 0
2 channel
Text Notes 8900 1250 2    60   ~ 0
3 channel\n_4CH
Text Notes 5225 6725 0    60   ~ 0
2 channel
Text Notes 8475 2950 0    60   ~ 0
4 channel\n_4CH
Text Notes 10675 6575 0    60   ~ 0
4 channels 14 buttons\n_4CH\n_BUTTONS14
$Comp
L D_Schottky D2
U 1 1 58D482CF
P 1725 5450
F 0 "D2" H 1725 5550 50  0000 C CNN
F 1 "1N5819" H 1725 5350 50  0000 C CNN
F 2 "" H 1725 5450 50  0000 C CNN
F 3 "" H 1725 5450 50  0000 C CNN
	1    1725 5450
	0    1    1    0   
$EndComp
Text Notes 10700 1975 0    60   ~ 0
Encoder\n_ENCODER
Text Notes 11800 4175 2    60   ~ 0
Temperature presets\n_ENCODER
$Sheet
S 5050 8300 1300 600 
U 58F3FA2E
F0 "PIC MCUs" 60
F1 "pic_mcu.sch" 60
$EndSheet
Text GLabel 4250 2050 2    60   Output ~ 0
IronAD
Text GLabel 4250 7450 2    60   Output ~ 0
HotAirAD
Text GLabel 4275 5150 2    60   Output ~ 0
IronAD
Text GLabel 4125 9600 2    60   Output ~ 0
PWMPlusAD
Text GLabel 4375 4050 2    60   Input ~ 0
Iron
Text GLabel 6450 1700 2    60   Input ~ 0
Iron
Text GLabel 6450 3400 2    60   Input ~ 0
Fan
Text GLabel 8500 1700 2    60   Input ~ 0
PWMPlus
Text GLabel 8700 3400 2    60   Input ~ 0
PWM
Text GLabel 7450 4650 2    60   Input ~ 0
HotAir
$Comp
L CONN_01X02 P7
U 1 1 58F6D439
P 9150 5000
F 0 "P7" H 9150 5150 50  0000 C CNN
F 1 "HOTAIRSW" V 9250 5000 50  0000 C CNN
F 2 "" H 9150 5000 50  0000 C CNN
F 3 "" H 9150 5000 50  0000 C CNN
	1    9150 5000
	1    0    0    -1  
$EndComp
$Comp
L CONN_01X02 P10
U 1 1 58F728B0
P 9150 6200
F 0 "P10" H 9150 6350 50  0000 C CNN
F 1 "IRONSW" V 9250 6200 50  0000 C CNN
F 2 "" H 9150 6200 50  0000 C CNN
F 3 "" H 9150 6200 50  0000 C CNN
	1    9150 6200
	1    0    0    -1  
$EndComp
Text GLabel 8550 6150 0    60   Output ~ 0
IronSw
Text GLabel 8550 4950 0    60   Output ~ 0
HotAirSw
Text Notes 10650 4650 0    60   ~ 0
_BUTTONS\n_BUTTONS14
Entry Wire Line
	10550 3150 10650 3250
Entry Wire Line
	10550 3350 10650 3450
Entry Wire Line
	10550 3550 10650 3650
Entry Wire Line
	10550 2950 10650 3050
Text GLabel 9750 1100 0    60   Output ~ 0
Iron+
Text GLabel 9750 1225 0    60   Output ~ 0
Iron-
Text GLabel 9750 1350 0    60   Output ~ 0
IronOn
Text GLabel 9750 1475 0    60   Output ~ 0
HotAir+
Text GLabel 9750 1600 0    60   Output ~ 0
HotAir-
Text GLabel 9750 1725 0    60   Output ~ 0
Fan+
Text GLabel 9750 1850 0    60   Output ~ 0
Fan-
Text GLabel 9750 1975 0    60   Output ~ 0
HotAirOn
Entry Wire Line
	10450 1100 10550 1200
Entry Wire Line
	10450 1225 10550 1325
Entry Wire Line
	10450 1350 10550 1450
Entry Wire Line
	10450 1475 10550 1575
Entry Wire Line
	10450 1600 10550 1700
Entry Wire Line
	10450 1725 10550 1825
Entry Wire Line
	10450 1850 10550 1950
Entry Wire Line
	10450 1975 10550 2075
Text Label 10400 1475 2    60   ~ 0
HotAir+
Text Label 10400 1100 2    60   ~ 0
Iron+
Text Label 10400 1225 2    60   ~ 0
Iron-
Text Label 10400 1350 2    60   ~ 0
IronOn
Text Label 10400 1975 2    60   ~ 0
HotAirOn
Text Label 10400 1600 2    60   ~ 0
HotAir+
Text Label 10400 1850 2    60   ~ 0
Fan-
Text Label 10400 1725 2    60   ~ 0
Fan+
Text GLabel 9750 2100 0    60   Output ~ 0
PWMPlus+
Text GLabel 9750 2225 0    60   Output ~ 0
PWMPlus-
Text GLabel 9750 2350 0    60   Output ~ 0
PWMPlusOn
Text GLabel 9750 2475 0    60   Output ~ 0
PWM+
Text GLabel 9750 2600 0    60   Output ~ 0
PWM-
Text GLabel 9750 2725 0    60   Output ~ 0
PWMOn
Entry Wire Line
	10450 2100 10550 2200
Entry Wire Line
	10450 2225 10550 2325
Entry Wire Line
	10450 2350 10550 2450
Entry Wire Line
	10450 2475 10550 2575
Entry Wire Line
	10450 2600 10550 2700
Entry Wire Line
	10450 2725 10550 2825
Text Label 10400 2100 2    60   ~ 0
PWMPlus+
Text Label 10400 2225 2    60   ~ 0
PWMPlus-
Text Label 10400 2350 2    60   ~ 0
PWMPlusOn
Text Label 10400 2475 2    60   ~ 0
PWM+
Text Label 10400 2600 2    60   ~ 0
PWM-
Text Label 10400 2725 2    60   ~ 0
PWMOn
Entry Wire Line
	13100 5825 13000 5925
Entry Wire Line
	13100 5950 13000 6050
Entry Wire Line
	13100 6075 13000 6175
Entry Wire Line
	13100 6200 13000 6300
Entry Wire Line
	13100 6325 13000 6425
Text Label 13200 5825 0    60   ~ 0
D/C
Text Label 13200 5950 0    60   ~ 0
Rst
Text Label 13200 6075 0    60   ~ 0
CS
Text Label 13200 6200 0    60   ~ 0
SDA
Text Label 13200 6325 0    60   ~ 0
SCLK
Entry Wire Line
	13100 5700 13000 5800
Text Label 13200 5700 0    60   ~ 0
Led
Text GLabel 13500 5700 2    60   Input ~ 0
Led
Text GLabel 13500 5825 2    60   Input ~ 0
D/C
Text GLabel 13500 5950 2    60   Input ~ 0
Rst
Text GLabel 13500 6075 2    60   Input ~ 0
CS
Text GLabel 13500 6200 2    60   Input ~ 0
SDA
Text GLabel 13500 6325 2    60   Input ~ 0
SCLK
$Sheet
S 5050 9200 1300 600 
U 58F52BF6
F0 "AVR MCUs" 60
F1 "avr_mcu.sch" 60
$EndSheet
Text GLabel 9750 2850 0    60   Output ~ 0
EncA
Text GLabel 9750 2975 0    60   Output ~ 0
EncB
Text GLabel 9750 3100 0    60   Output ~ 0
EncSw
Entry Wire Line
	10450 2850 10550 2950
Entry Wire Line
	10450 2975 10550 3075
Entry Wire Line
	10450 3100 10550 3200
Text Label 10400 2850 2    60   ~ 0
EncA
Text Label 10400 2975 2    60   ~ 0
EncB
Text Label 10400 3100 2    60   ~ 0
EncSw
$Comp
L CP_Small C18
U 1 1 58F5B5CD
P 9525 7575
F 0 "C18" H 9535 7645 50  0000 L CNN
F 1 "10" H 9535 7495 50  0000 L CNN
F 2 "Capacitors_ThroughHole:C_Radial_D5_L6_P2.5" H 9525 7575 50  0001 C CNN
F 3 "" H 9525 7575 50  0000 C CNN
	1    9525 7575
	1    0    0    -1  
$EndComp
$Sheet
S 5050 10100 1300 600 
U 58F406A9
F0 "STM8_MCUs" 60
F1 "stm8_mcu.sch" 60
$EndSheet
$Sheet
S 6650 8300 1300 600 
U 58FCA3A7
F0 "PIC MCU _SPI" 60
F1 "pic_mcu_spi.sch" 60
$EndSheet
$Comp
L SW_PUSH SW19
U 1 1 590348B8
P 11450 7600
F 0 "SW19" H 11600 7710 50  0000 C CNN
F 1 "PWMPlus+" H 11450 7520 50  0001 C CNN
F 2 "" H 11450 7600 50  0000 C CNN
F 3 "" H 11450 7600 50  0000 C CNN
	1    11450 7600
	1    0    0    -1  
$EndComp
$Comp
L SW_PUSH SW20
U 1 1 590358C1
P 12250 7600
F 0 "SW20" H 12400 7710 50  0000 C CNN
F 1 "PWMPlus+" H 12250 7520 50  0001 C CNN
F 2 "" H 12250 7600 50  0000 C CNN
F 3 "" H 12250 7600 50  0000 C CNN
	1    12250 7600
	1    0    0    -1  
$EndComp
$Comp
L SW_PUSH SW21
U 1 1 59035A3C
P 13050 7600
F 0 "SW21" H 13200 7710 50  0000 C CNN
F 1 "PWMPlus+" H 13050 7520 50  0001 C CNN
F 2 "" H 13050 7600 50  0000 C CNN
F 3 "" H 13050 7600 50  0000 C CNN
	1    13050 7600
	1    0    0    -1  
$EndComp
$Comp
L SW_PUSH SW22
U 1 1 59035BB9
P 13850 7600
F 0 "SW22" H 14000 7710 50  0000 C CNN
F 1 "PWMPlus+" H 13850 7520 50  0001 C CNN
F 2 "" H 13850 7600 50  0000 C CNN
F 3 "" H 13850 7600 50  0000 C CNN
	1    13850 7600
	1    0    0    -1  
$EndComp
$Comp
L SW_PUSH SW15
U 1 1 59035EDE
P 11450 7300
F 0 "SW15" H 11600 7410 50  0000 C CNN
F 1 "PWMPlus+" H 11450 7220 50  0001 C CNN
F 2 "" H 11450 7300 50  0000 C CNN
F 3 "" H 11450 7300 50  0000 C CNN
	1    11450 7300
	1    0    0    -1  
$EndComp
$Comp
L SW_PUSH SW16
U 1 1 59035EE4
P 12250 7300
F 0 "SW16" H 12400 7410 50  0000 C CNN
F 1 "PWMPlus+" H 12250 7220 50  0001 C CNN
F 2 "" H 12250 7300 50  0000 C CNN
F 3 "" H 12250 7300 50  0000 C CNN
	1    12250 7300
	1    0    0    -1  
$EndComp
$Comp
L SW_PUSH SW17
U 1 1 59035EEA
P 13050 7300
F 0 "SW17" H 13200 7410 50  0000 C CNN
F 1 "PWMPlus+" H 13050 7220 50  0001 C CNN
F 2 "" H 13050 7300 50  0000 C CNN
F 3 "" H 13050 7300 50  0000 C CNN
	1    13050 7300
	1    0    0    -1  
$EndComp
$Comp
L SW_PUSH SW18
U 1 1 59035EF0
P 13850 7300
F 0 "SW18" H 14000 7410 50  0000 C CNN
F 1 "PWMPlus+" H 13850 7220 50  0001 C CNN
F 2 "" H 13850 7300 50  0000 C CNN
F 3 "" H 13850 7300 50  0000 C CNN
	1    13850 7300
	1    0    0    -1  
$EndComp
$Comp
L SW_PUSH SW27
U 1 1 59036048
P 11450 8200
F 0 "SW27" H 11600 8310 50  0000 C CNN
F 1 "PWMPlus+" H 11450 8120 50  0001 C CNN
F 2 "" H 11450 8200 50  0000 C CNN
F 3 "" H 11450 8200 50  0000 C CNN
	1    11450 8200
	1    0    0    -1  
$EndComp
$Comp
L SW_PUSH SW28
U 1 1 5903604E
P 12250 8200
F 0 "SW28" H 12400 8310 50  0000 C CNN
F 1 "PWMPlus+" H 12250 8120 50  0001 C CNN
F 2 "" H 12250 8200 50  0000 C CNN
F 3 "" H 12250 8200 50  0000 C CNN
	1    12250 8200
	1    0    0    -1  
$EndComp
$Comp
L SW_PUSH SW29
U 1 1 59036054
P 13050 8200
F 0 "SW29" H 13200 8310 50  0000 C CNN
F 1 "PWMPlus+" H 13050 8120 50  0001 C CNN
F 2 "" H 13050 8200 50  0000 C CNN
F 3 "" H 13050 8200 50  0000 C CNN
	1    13050 8200
	1    0    0    -1  
$EndComp
$Comp
L SW_PUSH SW30
U 1 1 5903605A
P 13850 8200
F 0 "SW30" H 14000 8310 50  0000 C CNN
F 1 "PWMPlus+" H 13850 8120 50  0001 C CNN
F 2 "" H 13850 8200 50  0000 C CNN
F 3 "" H 13850 8200 50  0000 C CNN
	1    13850 8200
	1    0    0    -1  
$EndComp
$Comp
L SW_PUSH SW23
U 1 1 59036060
P 11450 7900
F 0 "SW23" H 11600 8010 50  0000 C CNN
F 1 "PWMPlus+" H 11450 7820 50  0001 C CNN
F 2 "" H 11450 7900 50  0000 C CNN
F 3 "" H 11450 7900 50  0000 C CNN
	1    11450 7900
	1    0    0    -1  
$EndComp
$Comp
L SW_PUSH SW24
U 1 1 59036066
P 12250 7900
F 0 "SW24" H 12400 8010 50  0000 C CNN
F 1 "PWMPlus+" H 12250 7820 50  0001 C CNN
F 2 "" H 12250 7900 50  0000 C CNN
F 3 "" H 12250 7900 50  0000 C CNN
	1    12250 7900
	1    0    0    -1  
$EndComp
$Comp
L SW_PUSH SW25
U 1 1 5903606C
P 13050 7900
F 0 "SW25" H 13200 8010 50  0000 C CNN
F 1 "PWMPlus+" H 13050 7820 50  0001 C CNN
F 2 "" H 13050 7900 50  0000 C CNN
F 3 "" H 13050 7900 50  0000 C CNN
	1    13050 7900
	1    0    0    -1  
$EndComp
$Comp
L SW_PUSH SW26
U 1 1 59036072
P 13850 7900
F 0 "SW26" H 14000 8010 50  0000 C CNN
F 1 "PWMPlus+" H 13850 7820 50  0001 C CNN
F 2 "" H 13850 7900 50  0000 C CNN
F 3 "" H 13850 7900 50  0000 C CNN
	1    13850 7900
	1    0    0    -1  
$EndComp
$Comp
L D D5
U 1 1 5903A8C2
P 11300 8500
F 0 "D5" H 11300 8600 50  0000 C CNN
F 1 "1n4148" H 11300 8400 50  0001 C CNN
F 2 "" H 11300 8500 50  0001 C CNN
F 3 "" H 11300 8500 50  0001 C CNN
	1    11300 8500
	1    0    0    -1  
$EndComp
$Comp
L D D6
U 1 1 5903B947
P 11300 8700
F 0 "D6" H 11300 8800 50  0000 C CNN
F 1 "1n4148" H 11300 8600 50  0001 C CNN
F 2 "" H 11300 8700 50  0001 C CNN
F 3 "" H 11300 8700 50  0001 C CNN
	1    11300 8700
	1    0    0    -1  
$EndComp
$Comp
L D D7
U 1 1 5903BAEE
P 11300 8900
F 0 "D7" H 11300 9000 50  0000 C CNN
F 1 "1n4148" H 11300 8800 50  0001 C CNN
F 2 "" H 11300 8900 50  0001 C CNN
F 3 "" H 11300 8900 50  0001 C CNN
	1    11300 8900
	1    0    0    -1  
$EndComp
$Comp
L D D8
U 1 1 5903BC96
P 11300 9100
F 0 "D8" H 11300 9200 50  0000 C CNN
F 1 "1n4148" H 11300 9000 50  0001 C CNN
F 2 "" H 11300 9100 50  0001 C CNN
F 3 "" H 11300 9100 50  0001 C CNN
	1    11300 9100
	1    0    0    -1  
$EndComp
Wire Wire Line
	11750 2450 11950 2450
Wire Wire Line
	11950 3050 11750 3050
Wire Wire Line
	11750 2650 11950 2650
Wire Wire Line
	11950 3250 11750 3250
Wire Wire Line
	11950 2850 11750 2850
Wire Wire Line
	11950 3450 11750 3450
Wire Wire Line
	11950 4400 11750 4400
Wire Wire Line
	11950 3650 11750 3650
Wire Bus Line
	13000 1000 13000 6600
Wire Bus Line
	10550 1000 10550 6400
Wire Wire Line
	11150 3650 10650 3650
Wire Wire Line
	11150 3450 10650 3450
Wire Wire Line
	11150 3250 10650 3250
Wire Wire Line
	11150 3050 10650 3050
Wire Wire Line
	11150 2450 10650 2450
Wire Wire Line
	10650 2650 11150 2650
Wire Wire Line
	11150 2850 10650 2850
Wire Wire Line
	10650 4400 11150 4400
Wire Wire Line
	10650 1450 11425 1450
Wire Wire Line
	11425 1550 10650 1550
Wire Wire Line
	10650 1300 11525 1300
Wire Wire Line
	11525 1300 11525 1350
Wire Wire Line
	11575 1650 11575 1750
Wire Wire Line
	11625 1350 11625 1300
Wire Wire Line
	11625 1300 11775 1300
Wire Wire Line
	11775 1300 11775 1700
Wire Wire Line
	11775 1700 11575 1700
Connection ~ 11575 1700
Wire Wire Line
	3025 1300 2675 1300
Wire Wire Line
	2675 1300 2675 2300
Wire Wire Line
	2775 1450 2675 1450
Connection ~ 2675 1450
Wire Wire Line
	3425 2050 3625 2050
Wire Wire Line
	3275 1450 3525 1450
Connection ~ 3525 2050
Wire Wire Line
	2325 1950 2825 1950
Wire Wire Line
	2825 2150 2675 2150
Connection ~ 2675 2150
Wire Wire Line
	2675 2600 2675 2800
Wire Wire Line
	2475 1950 2475 2300
Connection ~ 2475 1950
Wire Wire Line
	2475 2600 2475 2750
Wire Wire Line
	2475 2750 2675 2750
Connection ~ 2675 2750
Wire Wire Line
	1875 1950 2025 1950
Wire Wire Line
	1800 1400 1950 1400
Wire Wire Line
	1950 1250 1950 1550
Wire Wire Line
	1550 1250 1950 1250
Connection ~ 1950 1400
Wire Wire Line
	1200 1300 1200 1400
Wire Wire Line
	1200 1400 1300 1400
Wire Wire Line
	3925 2050 4250 2050
Wire Wire Line
	4025 2050 4025 2150
Wire Wire Line
	4025 2550 4025 2450
Wire Wire Line
	3000 6700 2650 6700
Wire Wire Line
	2650 6700 2650 7700
Wire Wire Line
	2750 6850 2650 6850
Connection ~ 2650 6850
Wire Wire Line
	3400 7450 3600 7450
Wire Wire Line
	3250 6850 3500 6850
Connection ~ 3500 7450
Wire Wire Line
	2300 7350 2800 7350
Wire Wire Line
	2800 7550 2650 7550
Connection ~ 2650 7550
Wire Wire Line
	2650 8000 2650 8200
Connection ~ 2450 7350
Wire Wire Line
	2450 8000 2450 8150
Wire Wire Line
	2450 8150 2650 8150
Connection ~ 2650 8150
Wire Wire Line
	1850 7350 2000 7350
Wire Wire Line
	1800 6800 1950 6800
Wire Wire Line
	1950 6650 1950 6950
Wire Wire Line
	1550 6650 1950 6650
Connection ~ 1950 6800
Wire Wire Line
	1200 6700 1200 6800
Wire Wire Line
	1200 6800 1300 6800
Wire Wire Line
	3900 7450 4250 7450
Wire Wire Line
	4000 7450 4000 7550
Wire Wire Line
	4000 7950 4000 7850
Connection ~ 4000 7450
Connection ~ 4025 2050
Wire Wire Line
	3525 1900 3525 2050
Wire Wire Line
	3525 1450 3525 1600
Wire Wire Line
	3500 6850 3500 7000
Wire Wire Line
	3500 7300 3500 7450
Wire Wire Line
	3000 8850 2650 8850
Wire Wire Line
	2650 8850 2650 9850
Wire Wire Line
	2750 9000 2650 9000
Connection ~ 2650 9000
Wire Wire Line
	3400 9600 3600 9600
Wire Wire Line
	3250 9000 3500 9000
Connection ~ 3500 9600
Wire Wire Line
	2300 9500 2800 9500
Wire Wire Line
	2800 9700 2650 9700
Connection ~ 2650 9700
Wire Wire Line
	2650 10150 2650 10350
Wire Wire Line
	1950 9400 1950 9500
Connection ~ 2450 9500
Wire Wire Line
	2450 10150 2450 10300
Wire Wire Line
	2450 10300 2650 10300
Connection ~ 2650 10300
Wire Wire Line
	1850 9500 2000 9500
Wire Wire Line
	1800 8950 1950 8950
Wire Wire Line
	1950 8800 1950 9100
Wire Wire Line
	1550 8800 1950 8800
Connection ~ 1950 8950
Wire Wire Line
	1200 8850 1200 8950
Wire Wire Line
	1200 8950 1300 8950
Wire Wire Line
	3900 9600 4125 9600
Wire Wire Line
	4000 9600 4000 9700
Wire Wire Line
	4000 10100 4000 10000
Connection ~ 4000 9600
Wire Wire Line
	3500 9000 3500 9150
Wire Wire Line
	3500 9450 3500 9600
Wire Notes Line
	1000 8600 4800 8600
Wire Notes Line
	4800 8600 4800 10600
Wire Notes Line
	4800 10600 1000 10600
Wire Notes Line
	1000 10600 1000 8600
Wire Notes Line
	1050 1050 2100 1050
Wire Notes Line
	2100 1050 2100 1850
Wire Notes Line
	2100 1850 1050 1850
Wire Notes Line
	1050 1850 1050 1050
Wire Notes Line
	1050 6450 2100 6450
Wire Notes Line
	2100 7250 1050 7250
Wire Notes Line
	1050 7250 1050 6450
Wire Notes Line
	2100 6450 2100 7250
Wire Notes Line
	1050 8650 2100 8650
Wire Notes Line
	2100 8650 2100 9400
Wire Notes Line
	2100 9400 1050 9400
Wire Notes Line
	1050 9400 1050 8650
Wire Wire Line
	5900 1700 6100 1700
Wire Wire Line
	6000 1800 6000 1700
Connection ~ 6000 1700
Wire Wire Line
	5600 1200 5600 1300
Wire Wire Line
	5600 1300 5500 1300
Wire Wire Line
	5500 1400 5600 1400
Wire Wire Line
	5600 1400 5600 1500
Wire Wire Line
	5600 1900 5600 2000
Wire Wire Line
	6000 2200 6000 2100
Wire Wire Line
	5900 3400 6100 3400
Wire Wire Line
	6000 3500 6000 3400
Connection ~ 6000 3400
Wire Wire Line
	5600 2900 5600 3000
Wire Wire Line
	5600 3000 5500 3000
Wire Wire Line
	5500 3100 5600 3100
Wire Wire Line
	5600 3100 5600 3200
Wire Wire Line
	5600 3600 5600 3700
Wire Wire Line
	6000 3900 6000 3800
Wire Wire Line
	6450 1700 6400 1700
Wire Wire Line
	6450 3400 6400 3400
Wire Wire Line
	8025 7725 8025 7825
Wire Wire Line
	8025 7825 9525 7825
Wire Wire Line
	8775 7725 8775 7925
Wire Wire Line
	9275 7825 9275 7725
Connection ~ 8775 7825
Wire Wire Line
	9025 7725 9025 7825
Connection ~ 9025 7825
Wire Wire Line
	8525 7725 8525 7825
Connection ~ 8525 7825
Wire Wire Line
	8275 7725 8275 7825
Connection ~ 8275 7825
Wire Wire Line
	8025 7425 8025 7325
Wire Wire Line
	8025 7325 9525 7325
Wire Wire Line
	8775 7225 8775 7425
Wire Wire Line
	9275 7325 9275 7425
Wire Wire Line
	8275 7425 8275 7325
Connection ~ 8275 7325
Wire Wire Line
	8525 7425 8525 7325
Connection ~ 8525 7325
Connection ~ 8775 7325
Wire Wire Line
	9025 7425 9025 7325
Connection ~ 9025 7325
Wire Wire Line
	14000 2800 13900 2800
Wire Wire Line
	13900 2800 13900 2900
Wire Wire Line
	14000 2700 13900 2700
Wire Wire Line
	13900 2600 14000 2600
Wire Wire Line
	14000 2500 13900 2500
Wire Wire Line
	13900 2400 14000 2400
Wire Wire Line
	13500 2400 13100 2400
Wire Wire Line
	13100 2500 13500 2500
Wire Wire Line
	13500 2600 13100 2600
Wire Wire Line
	13100 2700 13500 2700
Wire Wire Line
	14000 2300 13850 2300
Wire Wire Line
	13550 2300 13100 2300
Wire Wire Line
	13900 2000 13900 2100
Wire Wire Line
	13900 2100 14000 2100
Wire Wire Line
	8550 4950 8950 4950
Connection ~ 8650 4950
Wire Wire Line
	8550 6150 8950 6150
Connection ~ 8650 6150
Wire Notes Line
	8100 5550 8100 6750
Wire Notes Line
	8100 6750 9700 6750
Wire Notes Line
	9700 6750 9700 5550
Wire Notes Line
	9700 5550 8100 5550
Wire Wire Line
	7000 4650 7100 4650
Wire Wire Line
	7450 4650 7400 4650
Wire Wire Line
	7000 4850 7100 4850
Wire Wire Line
	7100 4850 7100 4950
Wire Wire Line
	6300 4650 6400 4650
Wire Wire Line
	5150 4650 6000 4650
Wire Wire Line
	5750 4650 5750 5050
Wire Wire Line
	6400 4850 6350 4850
Wire Wire Line
	6350 4850 6350 5050
Wire Wire Line
	6350 5650 6250 5650
Wire Wire Line
	5750 5700 5750 5850
Wire Wire Line
	5300 5850 5950 5850
Wire Wire Line
	5300 6050 6500 6050
Connection ~ 6350 5650
Wire Wire Line
	5300 4650 5300 4750
Connection ~ 5750 4650
Wire Wire Line
	5300 5050 5300 5400
Wire Wire Line
	5300 5700 5300 6050
Connection ~ 5750 5850
Wire Wire Line
	6500 6150 6400 6150
Wire Wire Line
	6400 6400 6500 6400
Wire Wire Line
	6500 6500 5150 6500
Connection ~ 5300 4650
Wire Wire Line
	14000 2200 13750 2200
Wire Wire Line
	13750 2200 13750 2150
Wire Wire Line
	13100 2200 13450 2200
Wire Wire Line
	13450 2200 13450 2050
Wire Wire Line
	13450 1650 13450 1750
Wire Wire Line
	8000 1700 8150 1700
Wire Wire Line
	8100 1800 8100 1700
Connection ~ 8100 1700
Wire Wire Line
	7700 1200 7700 1300
Wire Wire Line
	7700 1300 7600 1300
Wire Wire Line
	7600 1400 7700 1400
Wire Wire Line
	7700 1400 7700 1500
Wire Wire Line
	7700 1900 7700 2000
Wire Wire Line
	8100 2200 8100 2100
Wire Wire Line
	8500 1700 8450 1700
Wire Bus Line
	10550 6375 10550 7775
Wire Wire Line
	6400 6150 6400 6400
Wire Wire Line
	6350 5850 6250 5850
Wire Wire Line
	6350 5350 6350 5850
Connection ~ 5300 5850
Wire Wire Line
	5150 6500 5150 4650
Wire Wire Line
	8000 3400 8200 3400
Wire Wire Line
	8100 3500 8100 3400
Connection ~ 8100 3400
Wire Wire Line
	7700 2900 7700 3000
Wire Wire Line
	7700 3000 7600 3000
Wire Wire Line
	7600 3100 7700 3100
Wire Wire Line
	7700 3100 7700 3200
Wire Wire Line
	7700 3600 7700 3700
Wire Wire Line
	8100 3900 8100 3800
Wire Wire Line
	8700 3400 8500 3400
Wire Wire Line
	11750 5200 11900 5200
Wire Wire Line
	11900 5200 11900 6350
Wire Wire Line
	11750 6200 11900 6200
Connection ~ 11900 6200
Wire Wire Line
	11750 5800 11900 5800
Connection ~ 11900 5800
Wire Wire Line
	11750 6000 11900 6000
Connection ~ 11900 6000
Wire Wire Line
	11750 5600 11900 5600
Connection ~ 11900 5600
Wire Wire Line
	11750 5400 11900 5400
Connection ~ 11900 5400
Wire Wire Line
	10650 5200 11150 5200
Wire Wire Line
	10650 5400 11150 5400
Wire Wire Line
	11150 5600 10650 5600
Wire Wire Line
	10650 5800 11150 5800
Wire Wire Line
	11150 6000 10650 6000
Wire Wire Line
	10650 6200 11150 6200
Wire Wire Line
	1950 1850 1950 1950
Connection ~ 1950 1950
Wire Wire Line
	1950 7250 1950 7350
Connection ~ 1950 7350
Wire Wire Line
	2450 7350 2450 7700
Connection ~ 1950 9500
Wire Wire Line
	2450 9500 2450 9850
Wire Wire Line
	14450 5100 14350 5100
Wire Wire Line
	14350 5100 14350 5200
Wire Wire Line
	14450 5000 14350 5000
Wire Wire Line
	14350 4900 14450 4900
Wire Wire Line
	14450 4800 14350 4800
Wire Wire Line
	14350 4700 14450 4700
Wire Wire Line
	13100 4700 13950 4700
Wire Wire Line
	13100 4800 13950 4800
Wire Wire Line
	13100 4900 13950 4900
Wire Wire Line
	13100 5000 13950 5000
Wire Wire Line
	14350 4300 14350 4400
Wire Wire Line
	14350 4400 14450 4400
Wire Wire Line
	14200 4500 14450 4500
Wire Wire Line
	14200 4125 14200 4500
Wire Wire Line
	13100 3625 13450 3625
Wire Wire Line
	13750 3625 13900 3625
Wire Wire Line
	13100 4200 13200 4200
Wire Wire Line
	14200 3300 14200 3425
Wire Wire Line
	13800 3650 13800 3375
Wire Wire Line
	13800 3375 14200 3375
Connection ~ 14200 3375
Wire Wire Line
	13800 3950 13800 4000
Wire Wire Line
	14450 4600 14300 4600
Wire Wire Line
	13100 4600 14000 4600
Wire Wire Line
	13100 3975 13800 3975
Connection ~ 13800 3975
Wire Notes Line
	13075 5450 15550 5450
Wire Notes Line
	13075 3125 15550 3125
Wire Notes Line
	13075 3125 13075 5450
Wire Notes Line
	15550 3125 15550 5450
Wire Wire Line
	3175 4400 2825 4400
Wire Wire Line
	2825 4400 2825 5400
Wire Wire Line
	2925 4550 2825 4550
Connection ~ 2825 4550
Wire Wire Line
	3575 5150 3775 5150
Wire Wire Line
	3425 4550 3675 4550
Connection ~ 3675 5150
Wire Wire Line
	2375 5050 2975 5050
Wire Wire Line
	2975 5250 2825 5250
Connection ~ 2825 5250
Wire Wire Line
	2825 5700 2825 5900
Wire Wire Line
	1725 5850 2825 5850
Connection ~ 2825 5850
Wire Wire Line
	4075 5150 4275 5150
Wire Wire Line
	4175 5150 4175 5250
Wire Wire Line
	4175 5650 4175 5550
Connection ~ 4175 5150
Wire Wire Line
	3675 5000 3675 5150
Wire Wire Line
	3675 4550 3675 4700
Wire Wire Line
	2475 5625 2475 5850
Wire Wire Line
	2600 5850 2600 5625
Connection ~ 2600 5850
Wire Wire Line
	2475 5050 2475 5425
Connection ~ 2475 5050
Wire Wire Line
	2600 5425 2600 5050
Connection ~ 2600 5050
Wire Wire Line
	1475 5150 1475 5150
Wire Wire Line
	1475 5150 1475 5250
Wire Wire Line
	1475 5050 2075 5050
Wire Wire Line
	3575 3950 4050 3950
Connection ~ 3800 3950
Wire Wire Line
	4050 3650 4050 3500
Wire Wire Line
	3250 3650 4050 3650
Connection ~ 3800 3650
Wire Wire Line
	3575 3850 3575 3850
Wire Wire Line
	3575 3850 3575 3650
Connection ~ 3575 3650
Wire Wire Line
	2225 3650 3050 3650
Wire Wire Line
	4050 3950 4050 4175
Wire Wire Line
	1725 3550 1725 3950
Wire Wire Line
	1725 4350 1725 5300
Connection ~ 1725 5050
Wire Wire Line
	3575 4050 4375 4050
Wire Notes Line
	1000 6200 4800 6200
Wire Notes Line
	1000 3200 1000 6200
Wire Notes Line
	1000 3200 4800 3200
Wire Notes Line
	4800 3200 4800 6200
Connection ~ 2475 3650
Wire Wire Line
	2225 4050 2675 4050
Wire Wire Line
	2225 4050 2225 3950
Wire Wire Line
	2475 3950 2475 4550
Connection ~ 2475 4050
Wire Wire Line
	2075 4150 2025 4150
Wire Wire Line
	2375 4150 2575 4150
Wire Wire Line
	2575 4150 2575 3950
Wire Wire Line
	2575 3950 2675 3950
Wire Wire Line
	2675 3850 2675 3650
Connection ~ 2675 3650
Wire Notes Line
	7975 1825 7975 2400
Wire Notes Line
	7975 2400 8800 2400
Wire Notes Line
	8800 2400 8800 1825
Wire Notes Line
	8800 1825 7975 1825
Wire Notes Line
	1000 8400 4800 8400
Wire Notes Line
	4800 8400 4800 6400
Wire Notes Line
	4800 6400 1000 6400
Wire Notes Line
	1000 6400 1000 8400
Wire Notes Line
	1000 3000 4800 3000
Wire Notes Line
	4800 3000 4800 1000
Wire Notes Line
	4800 1000 1000 1000
Wire Notes Line
	1000 1000 1000 3000
Wire Notes Line
	6900 2700 5100 2700
Wire Notes Line
	5100 1000 5100 2500
Wire Notes Line
	5100 2500 6900 2500
Wire Notes Line
	6900 4200 6900 2700
Wire Notes Line
	6900 1000 5100 1000
Wire Notes Line
	6900 2500 6900 1000
Wire Notes Line
	5100 2700 5100 4200
Wire Notes Line
	5100 4200 6900 4200
Wire Notes Line
	9000 1000 7200 1000
Wire Notes Line
	9000 2500 9000 1000
Wire Notes Line
	7200 1000 7200 2500
Wire Notes Line
	7200 2500 9000 2500
Wire Notes Line
	5100 4450 7850 4450
Wire Notes Line
	7850 4450 7850 6750
Wire Notes Line
	7850 6750 5100 6750
Wire Notes Line
	5100 6750 5100 4450
Wire Notes Line
	7200 2700 9000 2700
Wire Notes Line
	7200 4200 7200 2700
Wire Notes Line
	9000 4200 7200 4200
Wire Notes Line
	10600 5000 12150 5000
Wire Notes Line
	12150 5000 12150 6600
Wire Notes Line
	12150 6600 10600 6600
Wire Notes Line
	10600 6600 10600 5000
Wire Wire Line
	1975 5300 1975 5050
Connection ~ 1975 5050
Wire Wire Line
	1725 5600 1725 5850
Connection ~ 2475 5850
Wire Wire Line
	1975 5600 1975 5850
Connection ~ 1975 5850
Wire Wire Line
	2475 4550 1725 4550
Connection ~ 1725 4550
Wire Notes Line
	10600 1100 11900 1100
Wire Notes Line
	11900 1100 11900 2000
Wire Notes Line
	11900 2000 10600 2000
Wire Notes Line
	10600 2000 10600 1100
Wire Notes Line
	10600 2200 12150 2200
Wire Notes Line
	12150 2200 12150 4800
Wire Notes Line
	10600 4800 10600 2200
Wire Notes Line
	11850 3100 10650 3100
Wire Notes Line
	10650 3100 10650 4200
Wire Notes Line
	10650 4200 11850 4200
Wire Notes Line
	11850 4200 11850 3100
Wire Notes Line
	9000 2700 9000 4200
Wire Wire Line
	8950 5050 8900 5050
Wire Wire Line
	8900 5050 8900 5300
Wire Wire Line
	8950 6250 8900 6250
Wire Wire Line
	8900 6250 8900 6500
Wire Notes Line
	12150 4800 10600 4800
Wire Wire Line
	9750 1100 10450 1100
Wire Wire Line
	9750 1225 10450 1225
Wire Wire Line
	9750 1350 10450 1350
Wire Wire Line
	9750 1475 10450 1475
Wire Wire Line
	9750 1600 10450 1600
Wire Wire Line
	9750 1725 10450 1725
Wire Wire Line
	9750 1850 10450 1850
Wire Wire Line
	9750 1975 10450 1975
Wire Wire Line
	9750 2725 10450 2725
Wire Wire Line
	9750 2600 10450 2600
Wire Wire Line
	9750 2475 10450 2475
Wire Wire Line
	9750 2350 10450 2350
Wire Wire Line
	9750 2225 10450 2225
Wire Wire Line
	9750 2100 10450 2100
Wire Wire Line
	13100 5950 13500 5950
Wire Wire Line
	13500 6075 13100 6075
Wire Wire Line
	13100 6200 13500 6200
Wire Wire Line
	13500 6325 13100 6325
Wire Wire Line
	13100 5825 13500 5825
Wire Wire Line
	13500 5700 13100 5700
Wire Wire Line
	11950 2450 11950 4500
Connection ~ 11950 2650
Connection ~ 11950 2850
Connection ~ 11950 3050
Connection ~ 11950 3250
Connection ~ 11950 3450
Connection ~ 11950 3650
Connection ~ 11950 4400
Wire Wire Line
	8650 6225 8650 6150
Wire Wire Line
	8650 5025 8650 4950
Wire Wire Line
	9750 3100 10450 3100
Wire Wire Line
	9750 2975 10450 2975
Wire Wire Line
	9750 2850 10450 2850
Wire Wire Line
	9525 7325 9525 7475
Connection ~ 9275 7325
Wire Wire Line
	9525 7825 9525 7675
Connection ~ 9275 7825
Wire Wire Line
	11850 8500 11450 8500
Wire Wire Line
	12650 8700 11450 8700
Wire Wire Line
	13450 8900 11450 8900
Wire Wire Line
	14250 9100 11450 9100
Wire Bus Line
	10550 7750 10550 9600
Text Label 10750 7400 0    60   ~ 0
Row0
Text Label 10750 7700 0    60   ~ 0
Row1
Text Label 10750 8000 0    60   ~ 0
Row2
Text Label 10750 8900 0    60   ~ 0
Col2
Text Label 10750 8700 0    60   ~ 0
Col1
Text Label 10750 8500 0    60   ~ 0
Col0
Text Label 10750 8300 0    60   ~ 0
Row3
Wire Wire Line
	11150 8900 10650 8900
Wire Wire Line
	11150 8700 10650 8700
Wire Wire Line
	11150 8500 10650 8500
Wire Wire Line
	10650 8300 13550 8300
Wire Wire Line
	10650 7400 13550 7400
Wire Wire Line
	10650 7700 13550 7700
Wire Wire Line
	10650 8000 13550 8000
Entry Wire Line
	10550 9000 10650 9100
Text Label 10750 9100 0    60   ~ 0
Col3
Wire Wire Line
	10650 9100 11150 9100
Entry Wire Line
	10550 8800 10650 8900
Entry Wire Line
	10550 8600 10650 8700
Entry Wire Line
	10550 8400 10650 8500
Entry Wire Line
	10550 8200 10650 8300
Entry Wire Line
	10550 7900 10650 8000
Entry Wire Line
	10550 7600 10650 7700
Entry Wire Line
	10550 7300 10650 7400
Wire Wire Line
	11750 7300 11850 7300
Wire Wire Line
	11850 7300 11850 8500
Wire Wire Line
	12550 7300 12650 7300
Wire Wire Line
	12650 7300 12650 8700
Wire Wire Line
	13350 7300 13450 7300
Wire Wire Line
	13450 7300 13450 8900
Wire Wire Line
	14150 7300 14250 7300
Wire Wire Line
	14250 7300 14250 9100
Wire Wire Line
	13550 7400 13550 7300
Wire Wire Line
	12750 7300 12750 7400
Connection ~ 12750 7400
Wire Wire Line
	11950 7300 11950 7400
Connection ~ 11950 7400
Wire Wire Line
	11150 7300 11150 7400
Connection ~ 11150 7400
Wire Wire Line
	11150 7700 11150 7600
Wire Wire Line
	11950 7700 11950 7600
Connection ~ 11150 7700
Wire Wire Line
	12750 7700 12750 7600
Connection ~ 11950 7700
Wire Wire Line
	13550 7700 13550 7600
Connection ~ 12750 7700
Wire Wire Line
	13350 7600 13450 7600
Connection ~ 13450 7600
Wire Wire Line
	12550 7600 12650 7600
Connection ~ 12650 7600
Wire Wire Line
	14150 7600 14250 7600
Connection ~ 14250 7600
Wire Wire Line
	14150 7900 14250 7900
Connection ~ 14250 7900
Wire Wire Line
	14150 8200 14250 8200
Connection ~ 14250 8200
Wire Wire Line
	13550 8000 13550 7900
Wire Wire Line
	13550 8300 13550 8200
Wire Wire Line
	13350 7900 13450 7900
Connection ~ 13450 7900
Wire Wire Line
	13350 8200 13450 8200
Connection ~ 13450 8200
Wire Wire Line
	12550 7900 12650 7900
Connection ~ 12650 7900
Wire Wire Line
	12550 8200 12650 8200
Connection ~ 12650 8200
Wire Wire Line
	11750 7600 11850 7600
Connection ~ 11850 7600
Wire Wire Line
	11750 7900 11850 7900
Connection ~ 11850 7900
Wire Wire Line
	11750 8200 11850 8200
Connection ~ 11850 8200
Wire Wire Line
	11150 7900 11150 8000
Connection ~ 11150 8000
Wire Wire Line
	11150 8200 11150 8300
Connection ~ 11150 8300
Wire Wire Line
	11950 7900 11950 8000
Connection ~ 11950 8000
Wire Wire Line
	11950 8200 11950 8300
Connection ~ 11950 8300
Wire Wire Line
	12750 7900 12750 8000
Connection ~ 12750 8000
Wire Wire Line
	12750 8200 12750 8300
Connection ~ 12750 8300
$EndSCHEMATC
