EESchema Schematic File Version 2
LIBS:ss-rescue
LIBS:power
LIBS:device
LIBS:transistors
LIBS:conn
LIBS:linear
LIBS:regul
LIBS:74xx
LIBS:cmos4000
LIBS:adc-dac
LIBS:memory
LIBS:xilinx
LIBS:microcontrollers
LIBS:dsp
LIBS:microchip
LIBS:microchip_pic16mcu
LIBS:analog_switches
LIBS:motorola
LIBS:texas
LIBS:intel
LIBS:audio
LIBS:interface
LIBS:digital-audio
LIBS:philips
LIBS:display
LIBS:cypress
LIBS:siliconi
LIBS:opto
LIBS:atmel
LIBS:contrib
LIBS:valves
LIBS:driver
LIBS:stm8
LIBS:ss-cache
EELAYER 25 0
EELAYER END
$Descr A4 11693 8268
encoding utf-8
Sheet 5 6
Title "STM8 MCU"
Date ""
Rev "2.0"
Comp ""
Comment1 ""
Comment2 "gav@bmstu.ru"
Comment3 ""
Comment4 ""
$EndDescr
$Comp
L STM8S003F3P IC?
U 1 1 58454BD8
P 7900 3100
F 0 "IC?" H 6750 3900 50  0000 L CNN
F 1 "STM8S103F3P" H 6750 3800 50  0000 L CNN
F 2 "TSSOP-20" H 6750 2300 50  0000 L CIN
F 3 "" H 7850 2700 50  0000 C CNN
	1    7900 3100
	1    0    0    -1  
$EndComp
Wire Bus Line
	5500 1000 5500 5750
Wire Bus Line
	5500 1000 10225 1000
Wire Bus Line
	10225 1000 10225 5825
$Comp
L STM8S003K3T U?
U 1 1 58F3E583
P 3000 3500
F 0 "U?" H 1950 4800 50  0000 L CNN
F 1 "STM8S003K3T" H 1950 4700 50  0000 L CNN
F 2 "LQFP-32" H 1950 2300 50  0001 L CIN
F 3 "" H 3000 3500 50  0001 C CNN
	1    3000 3500
	1    0    0    -1  
$EndComp
$Comp
L +5V #PWR?
U 1 1 58F3EB49
P 7900 2100
F 0 "#PWR?" H 7900 1950 50  0001 C CNN
F 1 "+5V" H 7900 2240 50  0000 C CNN
F 2 "" H 7900 2100 50  0001 C CNN
F 3 "" H 7900 2100 50  0001 C CNN
	1    7900 2100
	1    0    0    -1  
$EndComp
Wire Wire Line
	7900 2100 7900 2300
$Comp
L GND #PWR?
U 1 1 58F3EB6D
P 7900 4200
F 0 "#PWR?" H 7900 3950 50  0001 C CNN
F 1 "GND" H 7900 4050 50  0000 C CNN
F 2 "" H 7900 4200 50  0001 C CNN
F 3 "" H 7900 4200 50  0001 C CNN
	1    7900 4200
	1    0    0    -1  
$EndComp
Wire Wire Line
	7900 4000 7900 4200
$Comp
L GND #PWR?
U 1 1 58F3EBB5
P 3000 5000
F 0 "#PWR?" H 3000 4750 50  0001 C CNN
F 1 "GND" H 3000 4850 50  0000 C CNN
F 2 "" H 3000 5000 50  0001 C CNN
F 3 "" H 3000 5000 50  0001 C CNN
	1    3000 5000
	1    0    0    -1  
$EndComp
Wire Wire Line
	3000 5000 3000 4800
$Comp
L +5V #PWR?
U 1 1 58F3EC2E
P 3000 2000
F 0 "#PWR?" H 3000 1850 50  0001 C CNN
F 1 "+5V" H 3000 2140 50  0000 C CNN
F 2 "" H 3000 2000 50  0001 C CNN
F 3 "" H 3000 2000 50  0001 C CNN
	1    3000 2000
	1    0    0    -1  
$EndComp
Wire Wire Line
	3000 2000 3000 2200
$Comp
L CONN_01X04 P?
U 1 1 58F452BB
P 6350 5200
F 0 "P?" H 6350 5450 50  0000 C CNN
F 1 "CONN_01X04" V 6450 5200 50  0000 C CNN
F 2 "" H 6350 5200 50  0000 C CNN
F 3 "" H 6350 5200 50  0000 C CNN
	1    6350 5200
	1    0    0    -1  
$EndComp
Entry Wire Line
	5500 4950 5600 5050
Entry Wire Line
	5500 5150 5600 5250
Text Label 5650 5050 0    60   ~ 0
NRST
$Comp
L +5V #PWR?
U 1 1 58F458EC
P 6050 4900
F 0 "#PWR?" H 6050 4750 50  0001 C CNN
F 1 "+5V" H 6050 5040 50  0000 C CNN
F 2 "" H 6050 4900 50  0000 C CNN
F 3 "" H 6050 4900 50  0000 C CNN
	1    6050 4900
	1    0    0    -1  
$EndComp
$Comp
L GND #PWR?
U 1 1 58F458F2
P 6050 5650
F 0 "#PWR?" H 6050 5400 50  0001 C CNN
F 1 "GND" H 6050 5500 50  0000 C CNN
F 2 "" H 6050 5650 50  0000 C CNN
F 3 "" H 6050 5650 50  0000 C CNN
	1    6050 5650
	1    0    0    -1  
$EndComp
Text Label 5650 5250 0    60   ~ 0
SWIM
Wire Wire Line
	5600 5050 6150 5050
Wire Wire Line
	6150 5250 5600 5250
Wire Wire Line
	6050 4900 6050 5150
Wire Wire Line
	6050 5150 6150 5150
Wire Wire Line
	6150 5350 6050 5350
Wire Wire Line
	6050 5350 6050 5650
Entry Wire Line
	5500 2500 5600 2600
Text Label 5700 2600 0    60   ~ 0
NRST
Wire Wire Line
	5600 2600 6600 2600
Entry Wire Line
	5500 2800 5600 2900
Text Label 5700 2900 0    60   ~ 0
SWIM
Wire Wire Line
	5600 2900 6600 2900
Text GLabel 6400 3700 0    60   Input ~ 0
VCAP
Wire Wire Line
	6400 3700 6600 3700
Text GLabel 1600 4500 0    60   Input ~ 0
VCAP
Wire Wire Line
	1600 4500 1800 4500
Text GLabel 6100 4200 2    60   Input ~ 0
VCAP
$EndSCHEMATC
